Filter id,Filter name,Owner,JQL
12511,Heisenberg Done in last 14 days,tsheehy,"team = ""CRM - Agent - Heisenberg"" AND statusCategory = Done AND resolved &gt;= -14d ORDER BY status DESC, updated DESC"
12189,KAB: Team == ‘Kyiv’,jcostella,"project = AR AND Team = ""Architecture - Kyiv""  ORDER BY Rank ASC"
12512,Heisenberg In Process,tsheehy,"team = ""CRM - Agent - Heisenberg"" AND statusCategory = ""In Progress"" ORDER BY status DESC, updated DESC"
12517,Filter for Mobile Pleb Board,amacdonald,"(project = MOBILE OR Team in (""Team Tasty Treats/Team Meseeks"")) AND issuetype != Sub-task ORDER BY Rank ASC"
12204,Filter for Account Services/Billing - Main Board,jcostella,"project = ASB AND type in (Story, Bug, Task, Spike, Epic) OR Team in (""Account Services - ITeam4j"", ""Account Services - Verde"") ORDER BY Rank ASC"
13051,Roxbury - 8 Points,tsussman,"team = ""SalesQuote - Team 1"" AND ""Story Points"" = 8"
13053,Roxbury - 3 Points,tsussman,"team = ""SalesQuote - Team 1"" AND ""Story Points"" = 3"
13324,Active Filter Sha,sharmila.begum,"issuetype in standardIssueTypes() AND Sprint in (401, 402) AND cf[11212] in (""Intelliswift - Billing"", ""Intelliswift - Dialers"", ""Intelliswift - Tooling"", ""Intelliswift Team"")"
13060,Viperfish 2 SP,alevchuk,"project = CRMSVC and Team=""CRM - Agent - Viperfish""  AND ""Story Points"" = 2 AND statusCategory = Done ORDER BY updated DESC"
13062,Roxbury - 5 Points,tsussman,"team = ""SalesQuote - Team 1""  AND ""Story Points"" = 5"
13064,Platform Launch not started,mvorobjov,"category = Product AND issuetype in (Story) AND summary !~ header AND summary !~ navigation AND fixVersion in (""Platform Launch 2018"") AND status in (Idea, Defined) ORDER BY project ASC, team ASC, status ASC"
13106,Filter for E2ER Sprint Board v3,alevchuk,"project = QA AND Type in (Epic, ""QA Test"", Bug) OR team = ""QA Core Team"" ORDER BY Rank ASC"
13108,Banda - In Progress in Sprint,tsussman,"Team = ""Data Migration - Banda"" AND type in (Story, Spike, Bug, Task, ""Technical Improvement"") AND sprint in openSprints() AND status in (""In Progress"", ""Code Merged"", ""Code Review"", ""Integration Testing"", ""Feature Testing"", ""Dev Complete"")"
13332,AN Unresolved Launch,mvorobjov,"(fixVersion in (""Platform Launch 2018"", ""Launch Regression Bugs"") or ""Epic Link""  = QA-494) and resolution is empty and project = Analytics  order by project, team, issuetype, status     "
12612,Platform Launch 2018 Remg - Chgd in 2 days,tsheehy,"category = Product AND issuetype in standardIssueTypes() AND fixVersion in (""Platform Launch 2018"") AND fixVersion was not in (""Platform Launch 2018"") before endOfDay(-2) AND status not in (Done, ""Done / Accepted"", ""Dev Complete"") ORDER BY cf[11212] ASC, key ASC, fixVersion DESC"
12615,Platform Launch 2018 - CRMSVC,kbranham,"project = ""CRM Services"" AND fixVersion = ""Platform Launch 2018"" ORDER BY Team, Sprint, Rank"
12616,Platform Launch 2018 - CRMSVC - COMPLETED,kbranham,"project = ""CRM Services"" AND fixVersion = ""Platform Launch 2018"" AND status in (""Done / Accepted"", Done) ORDER BY Team, Sprint, Rank"
12617,Platform Launch 2018 - CRMSVC - REMAINING,kbranham,"project = ""CRM Services"" AND fixVersion = ""Platform Launch 2018"" AND status not in (""Done / Accepted"", Done) ORDER BY Team, Sprint, Rank"
12704,Platform Launch 2018 - RE &amp; BT,kbranham,"project in (""Rules Engine"", ""Builder Tools"") AND fixVersion = ""Platform Launch 2018"" ORDER BY Team, Sprint, Rank"
12705,Platform Launch 2018 - RE &amp; BT - REMAINING,kbranham,"project in (""Rules Engine"", ""Builder Tools"") AND fixVersion = ""Platform Launch 2018"" AND status not in (""Done / Accepted"", Done) ORDER BY Team, Sprint, Rank"
12706,Platform Launch 2018 - RE &amp; BT - COMPLETED,kbranham,"project in (""Rules Engine"", ""Builder Tools"") AND fixVersion = ""Platform Launch 2018"" AND status in (""Done / Accepted"", Done) ORDER BY Team, Sprint, Rank"
12709,Dash - Main board with subtasks,vserdiuk,"project = DASH AND (type in (""Technical Story"", Bug, Task, Spike, Epic) OR type in subTaskIssueTypes()) OR Team in (""Dashboard Builder - Octagon"") ORDER BY Rank ASC"
12716,Platform Launch 2018 Added in last week,jcharles,"category = Product AND issuetype in (epic, story, bug, task) AND fixVersion in (""Platform Launch 2018"") AND fixVersion was not in (""Platform Launch 2018"") before endOfDay(-7) AND status not in (Done, ""Done / Accepted"") ORDER BY project asc, team asc, status asc"
17189,EX - Team Epics with Employees,cwhite,"project = EX AND ((type = Employee AND status != Inactive AND ""Epic Link"" is not EMPTY) OR (type = Epic AND labels = Team AND status = Active AND issue in epicsWhereIssueIn(""(type = Employee AND status != Inactive AND 'Epic Link' is not EMPTY)"") )) ORDER BY cf[11212] ASC, issuetype DESC"
12236,IntelliOpenIssues,akhot,"issuetype in standardIssueTypes() AND Sprint = 479 AND Team in (""Intelliswift - Dialers"", ""Intelliswift - Tooling"", ""Intelliswift Team"", ""Intelliswift - Billing"") ORDER BY assignee ASC"
12249,Viperfish issues,vvovk,"project = CRMSVC AND Team = ""CRM - Agent - Viperfish"" ORDER BY created DESC"
12304,IntelliOpenIssue,cburse,"issuetype in standardIssueTypes() AND Sprint in (75, 70, 86) AND Team = ""Intelliswift Team"" ORDER BY status DESC, assignee ASC"
12306,intelli_blocked,akhot,"issuetype in standardIssueTypes() AND labels = Blocked AND Team in (""Intelliswift - Billing"", ""Intelliswift - Dialers"", ""Intelliswift - Tooling"", ""Intelliswift Team"")  ORDER BY assignee ASC"
12206,Filter for Analytics - Main Board,jcostella,"project = AN AND type in (Story, ""Technical Improvement"", Bug, Task, Spike, Epic, Security) OR category = Product AND Team in (""Analytics - Team 1"") AND type not in (subTaskIssueTypes()) ORDER BY Rank ASC"
12207,Filter for Analytics - Team 1 Board,jcostella,"project = AN AND Team in (""Analytics - Team 1"") OR category = Product AND Team in (""Analytics - Team 1"") OR project = Analytics AND type in subTaskIssueTypes() AND issue in issuesSubtasks(""Team = 'Analytics - Team 1'"") ORDER BY Rank ASC"
12208,Filter for Builder Tools Team,jcostella,"project = BT AND Team in (""Builder Tools Team"") OR Team in (""Builder Tools Team"") OR project = BT AND type = Sub-task AND issue in issuesSubtasks(""Team = 'Builder Tools Team'"") ORDER BY Rank ASC"
12212,Filter for Digital SMS - Team 1 Board,jcostella,"project = DSMS AND Team in (""Digital SMS - Team 1"") OR category = Product AND Team in (""Digital SMS - Team 1"") OR project = DSMS AND type in subTaskIssueTypes() AND issue in issuesSubtasks(""Team = 'Digital SMS - Team 1'"") ORDER BY Rank ASC"
12214,Filter for Wiki - Team 1 Board,jcostella,"project = WIKI AND Team in (""Wiki - Team 1"") OR category = Product AND Team in (""Wiki - Team 1"") OR project = WIKI AND type in subTaskIssueTypes() AND issue in issuesSubtasks(""Team = 'Wiki - Team 1'"") ORDER BY Rank ASC"
12213,Filter for Partner Portal - Team 1 Board,jcostella,"project = PP AND Team in (""Partner Portal - Team 1"") OR category = Product AND Team in (""Partner Portal - Team 1"") OR project = PP AND type in subTaskIssueTypes() AND issue in issuesSubtasks(""Team = 'Partner Portal - Team 1'"") ORDER BY Rank ASC"
12216,Filter for Data Migration - Main Board,jcostella,"project = DM AND type in (Story, ""Technical Improvement"", Bug, Task, Spike, Epic, Security) OR category = Product AND Team in (""Data Migration - Banda"") AND type not in subTaskIssueTypes() ORDER BY Rank ASC"
12217,Filter for Cust Setup Tools - Team 1 Board,jcostella,"project = CST AND Team in (""Cust Setup Tools - Team 1"") OR category = Product AND Team in (""Cust Setup Tools - Team 1"") OR project = CST AND type in subTaskIssueTypes() AND issue in issuesSubtasks(""Team = 'Cust Setup Tools - Team 1'"") ORDER BY Rank ASC"
17351,Interactions team Kanban Board,hanna.podoliak,"Team = Javelin  AND project != ""Engineer Experience"" ORDER BY Rank ASC"
17352,Iteration_3,vhimpel,"labels = Iteration_3 AND Team = ""Analytics - Octagon"" ORDER BY updated DESC"
12829,Phoenix remove version,alevchuk,"issuetype not in (Epic) AND issuekey not in (CRMSVC-433, CRMSVC-277, CRMSVC-356, CRMSVC-405, CRMSVC-386, CRMSVC-315, CRMSVC-407, CRMSVC-196, CRMSVC-314, CRMSVC-253) AND team = ""CRM - Agent - Phoenix"" AND fixVersion = ""Platform Launch 2018"" AND statusCategory in (""To Do"") ORDER BY issuetype DESC"
12850,all done by Heisenberg,alevchuk,"team = ""CRM - Agent - Heisenberg"" AND statusCategory = Done ORDER BY issuetype ASC"
12851,Integration - V &amp; P Main Board,jcostella,"project in (INTP) AND type in (Story, Bug, Task, Spike, Epic, Security) OR category = Product AND Team in (""INT - Voice"", ""Trompo de Pastor"") AND type not in subTaskIssueTypes() ORDER BY Rank ASC"
12903,2018S6 Not Viperfish,alevchuk,"sprint = 170  AND (team in (""CRM - Agent - Heisenberg"", ""CRM - Agent - Phoenix"") OR team is EMPTY) AND ""Story Points"" is not EMPTY AND updatedDate &lt;= ""2018/03/28 16:30"""
12919,NotAccepted,cburse,"issuetype in standardIssueTypes() AND status in (Open, ""In Progress"", Reopened, Resolved, Closed, Assigned, Confirmed, ""Not reproducible"", ""Not a Bug"", ""Pushed to Later Release"", ""In Testing"", Duplicate, ""Checked In"", ""Waiting Approval"", ""Week Backlog"", ""Not Approved"", ""Roll Back"", New, Feedback, Rejected, ""Code Review"", ""Ready To Build"", ""Awaiting Approval"", ""In Review"", ""New Request"", ""Ready For Testing"", Procurement, IP, OS, Rack, IHM, ""Configure Monitoring"", ""Being Created"", Started, ""Month Backlog"", Blocked, ""To Do"", ""Selected for Development"", Defined, ""Dev Complete"", ""Code Merged"", Idea, ""Integration Testing"", ""Year Backlog"", Backlog, Approved, Failed, ""Feature Testing"", ""Under Review"", Accepted, ""Waiting for Info"", ""Lo-Fi Designs"", ""Design Review"", ""Hi-Fi Designs"", ""Design Testing"", ""Design Complete"", ""Dev Work"", QA, ""Waiting for Acceptance"") AND Sprint = 208 AND Team = ""Intelliswift Team"" ORDER BY assignee ASC"
17313,Iteration_2,vhimpel,"project = AN AND labels = Iteration_2 AND Team = ""Analytics - Octagon"" ORDER BY updated DESC"
12369,issues missing a team ,jthoreck,"project = SE AND resolution = Unresolved AND Team is EMPTY ORDER BY cf[11212] DESC, priority DESC, updated DESC"
12372,Filter for Mobile Team Board,jcostella,"project = MOBILE AND Team in (""Team Tasty Treats/Team Meseeks"") OR category = Product AND Team in (""Team Tasty Treats/Team Meseeks"") OR project = MOBILE AND type in subTaskIssueTypes() AND issue in issuesSubtasks(""Team = 'Team Tasty Treats/Team Meseeks'"") ORDER BY Rank ASC"
12413,Design Tasks before Feb 14,mcheung,"project = AN AND status in (Defined, Idea) AND labels in (Design_needed, Design_needs_update) AND Team = ""Analytics - Team 1"" ORDER BY cf[10401] ASC"
12422,security requests,ablumberg,"(project = DevOps AND Team = ""DevOps Team"" AND Team = ""Security Team"" OR reporter = jcoffee AND project=DevOps  OR reporter =sibach AND project = DevOps) AND status != Complete AND status != Rejected"
12428,Intelli_CompletedPastSprint,akhot,"issuetype in standardIssueTypes() AND (Sprint not in (479) OR Sprint is EMPTY) AND Team in (""Intelliswift - Billing"", ""Intelliswift - Dialers"", ""Intelliswift - Tooling"", ""Intelliswift Team"") AND status = ""Dev Complete"" ORDER BY status DESC, assignee ASC"
12432,Intelliswift Blocker Report,tsussman,"Team = ""Intelliswift Team"" AND Flagged = Impediment AND status != Idea AND Sprint in openSprints() ORDER BY project ASC"
12405,Filter for Security Kanban Board,tsheehy,"project = 10502 OR Team in (""Security Team"") ORDER BY Rank ASC"
13430,Notifications - test,alevchuk,"project = NOTIF AND type in (Story, ""Technical Story"", Bug, Task, Spike, Epic, Security, subTaskIssueTypes()) OR category = Product AND Team in (""Notification Service - Team 1"") ORDER BY Rank ASC"
13431,Notification-new,rkolos,"project = NOTIF AND type in (Story, ""Technical Story"", Bug, Task, Spike, Epic, Security, subTaskIssueTypes()) OR category = Product AND Team in (""Notification Service - Team 1"") ORDER BY Rank ASC"
13432,All Winston,monitor,Team = Winston 
13109,Banda - Accepted in Sprint,tsussman,"Team = ""Data Migration - Banda"" AND type in (Story, Spike, Bug, Task, ""Technical Improvement"") AND sprint in openSprints() AND status in (Done, ""Done / Accepted"")"
13110,Banda - Open PR Accepted,tsussman,"team = ""Data Migration - Banda""  AND statusCategory = Done AND issue.property[development].openprs &gt; 0"
13111,Banda - Critical Bugs,tsussman,"Team = ""Data Migration - Banda""  AND issuetype = Bug AND status != done AND status != ""Done / Accepted"" AND (priority = Critical OR priority = Major)"
13112,Banda - In Sprint No FixVersion,tsussman,"team = ""Data Migration - Banda""  AND sprint in openSprints() AND fixVersion is EMPTY"
13113,Banda - ToDo in Sprint,tsussman,"Team = ""Data Migration - Banda"" AND type in (Story, Spike, Bug, Task, ""Technical Improvement"") AND sprint in openSprints() AND (status = Idea OR status = Defined)"
13114,All Banda,tsussman,"team = ""Data Migration - Banda"" "
13120,Filter for Analytics - Main Board v2,alevchuk,"project = AN AND (type in (Story, ""Technical Story"", Bug, Task, Spike, Epic) or type = ""Sprint Bug"" and statusCategory not in (Done)) OR category = Product AND Team in (""Analytics - Team 1"") AND type not in (subTaskIssueTypes()) ORDER BY Rank ASC"
13201,Intelliswift - ToDo in Sprint,tsussman,"Team in(""Intelliswift - Dialers"", ""Intelliswift - Tooling"") AND type in (Story, Spike, Bug, Task, ""Technical Story"") AND sprint in openSprints() AND (status = Idea OR status = Defined)"
13213,intelli_ppv2_backlog,akhot,"issuetype in standardIssueTypes() AND issueType not in (Epic) AND (Sprint not in (491, 479) OR Sprint is EMPTY) AND Team in (""Intelliswift - Billing"", ""Intelliswift - Dialers"", ""Intelliswift - Tooling"", ""Intelliswift Team"") AND status not in (""Done / Accepted"", ""Dev Complete"", Done) AND (labels != Blocked AND labels not in (intelli_inactive_backlog, ppv2_front_end) OR labels is EMPTY) AND Project in (""Partner Portal"") ORDER BY status DESC, assignee ASC"
13342,CRM Admin Board,apavalaev,"project = CRMSVC AND Team in (Javelin) OR category = Product AND Team in (Javelin) OR (project = CRMSVC AND type in subTaskIssueTypes() AND issue in issuesSubtasks(""Team = Javelin"")) OR project = ""Builder Tools"" ORDER BY Rank ASC"
13344,Voice - No Fix Version,tsussman,"Team in (""Big Tymers"", ""Ca$h Money"") AND type in (Story, Spike, Bug, Task, ""Technical Story"") AND status in (""In Progress"", ""Integration Testing"", ""Code Review"", ""Feature Testing"", ""Dev Complete"", ""Code Merged"") AND fixVersion is EMPTY"
13345,Roxbury - No Fix Version,tsussman,"Team = ""SalesQuote - Team 1""  AND type in (Story, Spike, Bug, Task, ""Technical Story"") AND status in (""In Progress"", ""Integration Testing"", ""Code Review"", ""Feature Testing"", ""Dev Complete"", ""Code Merged"") AND fixVersion is EMPTY"
13349,Old Open Intelliswift Stories,pkida,"team = ""Intelliswift Team"" and status not in (Done,""Done / Accepted"") and Sprint not in openSprints()"
13350,QA Tracking v1,alevchuk,"project != QA and Team in (""QA Core Team"")"
13352,Intelliswift Team Board,tsussman,"category = Product AND Team in (""Intelliswift Team"", ""Intelliswift - Billing"", ""Intelliswift - Dialers"", ""Intelliswift - Tooling"") OR type in subTaskIssueTypes() AND (issue in issuesSubtasks(""Team = 'Intelliswift Team'"") OR issue in issuesSubtasks(""Team = 'Intelliswift - Tooling'"") OR issue in issuesSubtasks(""Team = 'Intelliswift - Billing'"") OR issue in issuesSubtasks(""Team = 'Intelliswift - Dialer'"")) ORDER BY Rank ASC"
13353,Filter for CRM Admin - Main Board,jcostella,"project = CRMSVC AND type in (Story, ""Technical Improvement"", Bug, Task, Spike, Epic) OR category = Product AND Team in (""Interactions - Javelin"") AND type not in subTaskIssueTypes() ORDER BY Rank ASC"
13366,Filter for Nextiva Voice - Main Board - Todd,tsussman,"project = NV AND type in (Story, ""Technical Improvement"", Bug, Task, Spike, Epic, Security) OR category = Product AND Team in (""Voice - Ca$h Money"") AND type not in subTaskIssueTypes() ORDER BY Rank ASC"
12140,Filter for Notifications - Team 1 Board,jcostella,"project = NOTIF AND Team in (""Notification Service - Team 1"") OR category = Product AND Team in (""Notification Service - Team 1"") OR project = NOTIF AND type in subTaskIssueTypes() AND issue in issuesSubtasks(""Team = 'Notification Service - Team 1'"") ORDER BY Rank ASC"
12141,Filter for Email Marketing - Main Board,jcostella,"project = EM AND type in (Story, ""Technical Improvement"", Bug, Task, Spike, Epic) OR category = Product AND Team in (""Email Marketing - Mailto"") AND type not in subTaskIssueTypes() ORDER BY Rank ASC"
12142,Filter for Email Marketing - Team 1 Board,jcostella,"project = EM AND Team in (""Email Marketing - Mailto"") OR category = Product AND Team in (""Email Marketing - Mailto"") OR project = DMC AND type in subTaskIssueTypes() AND issue in issuesSubtasks(""Team = 'Email Marketing - Mailto'"") ORDER BY Rank ASC"
12143,Filter for Digital Marketing Channels - Team 2 Board,jcostella,"project = DMC AND Team in (""Survey &amp; Email - Team 2"") OR category = Product AND Team in (""Survey &amp; Email - Team 2"") OR project = DMC AND type in subTaskIssueTypes() AND issue in issuesSubtasks(""Team = 'Survey &amp; Email - Team 2'"") ORDER BY Rank ASC"
12144,Filter for Rules Engine - Main Board,jcostella,"project = RE AND type in (Story, ""Technical Improvement"", Bug, Task, Spike, Epic, Security) OR category = Product AND Team in (""Rules Engine - Mars"", ""Rules Engine - Squirrels"") AND type not in subTaskIssueTypes() ORDER BY Rank ASC"
12145,Filter for Rules Engine - Squirrels Board,jcostella,"project = RE AND Team in (""Rules Engine - Squirrels"") OR category = Product AND Team in (""Rules Engine - Squirrels"") OR project = RE AND type in subTaskIssueTypes() AND issue in issuesSubtasks(""Team = 'Rules Engine - Squirrels'"") ORDER BY Rank ASC"
12146,Filter for Rules Engine - Mars Board,jcostella,"project = RE AND Team in (""Rules Engine - Mars"") OR category = Product AND Team in (""Rules Engine - Mars"") OR project = RE AND type in subTaskIssueTypes() AND issue in issuesSubtasks(""Team = 'Rules Engine - Mars'"") ORDER BY Rank ASC"
12149,Filter for Cust Setup Tools - Main Board,jcostella,"project = CST AND type in (Story, ""Technical Improvement"", Bug, Task, Spike, Epic, Security) OR category = Product AND Team in (""Cust Setup Tools - Team 1"") AND type not in subTaskIssueTypes() ORDER BY Rank ASC"
12150,Filter for Data Migration - Banda,jcostella,"project = DM AND Team in (""Data Migration - Banda"") OR category = Product AND Team in (""Data Migration - Banda"") OR project = DM AND type in subTaskIssueTypes() AND issue in issuesSubtasks(""Team = 'Data Migration - Banda'"") ORDER BY Rank ASC"
12132,Filter for Account Services - ITeam4j Board,jcostella,"project = ASB AND Team in (""Account Services - ITeam4j"") OR Team in (""Account Services - ITeam4j"") OR project = ASB AND type in subTaskIssueTypes() AND issue in issuesSubtasks(""Team = 'Account Services - ITeam4j'"") ORDER BY Rank ASC"
12133,Filter for Account Services - Verde Board,jcostella,"project = ASB AND Team in (""Account Services - Verde"") OR category = Product AND Team in (""Account Services - Verde"") OR project = ASB AND type in subTaskIssueTypes() AND issue in issuesSubtasks(""Team = 'Account Services - Verde'"") ORDER BY Rank ASC"
12136,Filter for Calendar - Main Board,jcostella,"project = CAL AND type in (""Technical Improvement"", Story, Bug, Task, Spike, Epic, Security) OR category = Product AND Team in (""Los Curados"") AND type not in subTaskIssueTypes() ORDER BY Rank ASC"
12137,Filter for Calendar - Team 1 Board,jcostella,"project = CAL AND Team in (""Calendar - Team 1"") OR category = Product AND Team in (""Calendar - Team 1"") OR project = CAL AND type in subTaskIssueTypes() AND issue in issuesSubtasks(""Team = 'Calendar - Team 1'"") ORDER BY Rank ASC"
12123,Filter for CRM - Agent - Viperfish,jcostella,"project = CRMSVC AND Team in (""CRM - Agent - Viperfish"") OR category = Product AND Team in (""CRM - Agent - Viperfish"") OR project = CRMSVC AND type in subTaskIssueTypes() AND issue in issuesSubtasks(""Team = 'CRM - Agent - Viperfish'"") ORDER BY Rank ASC"
12151,Filter for Digital Chat - Main Board,jcostella,"project = DC AND type in (Story, ""Technical Improvement"", Bug, Task, Spike, Epic, Security) OR category = Product AND Team in (""Queen Chatifah"") ORDER BY Rank ASC"
13448,Intelli_s11,akhot,"issuetype in standardIssueTypes() AND status in (Done, ""Done / Accepted"") AND Sprint in (276, 277) AND Team in (""Intelliswift - Dialers"", ""Intelliswift - Tooling"", ""Intelliswift Team"", ""Intelliswift - Billing"")"
13461,IntelliOpenIssues,makude,"issuetype in standardIssueTypes() AND Sprint in (289, 290) AND Team in (""Intelliswift - Dialers"", ""Intelliswift - Tooling"", ""Intelliswift Team"", ""Intelliswift - Billing"") AND assignee in (makude) ORDER BY assignee ASC"
13463,Hesignberg filter Work,jkida,"project = CRMSVC AND status not in (""Done / Accepted"", ""Done"") AND Team = ""CRM - Agent - Heisenberg""  ORDER BY assignee ASC, priority DESC"
13473,Analytics Core Team Board Filter v1,alevchuk,"project = AN AND Team = ""Analytics - Core Team"" ORDER BY Rank ASC"
13474,Analytics Feature Team 1 Board Filter v1,alevchuk,"Team = ""Analytics - Feature Team 1"" AND (issuetype not in (subTaskIssueTypes()) OR issuetype = ""Sprint Bug"" AND statusCategory != Done) AND project not in (PTO, EX) ORDER BY Rank ASC"
13475,Analytics Feature Team 2 Board Filter v1,alevchuk,"Team = ""Analytics - Feature Team 2"" AND (issuetype not in (subTaskIssueTypes()) OR issuetype = ""Sprint Bug"" AND statusCategory != Done) AND project not in (PTO, EX) ORDER BY Rank ASC"
13476,Analytics Support Team Board Filter v1,alevchuk,"project = AN AND Team = ""Analytics - Support Team"" and (issuetype not in (subTaskIssueTypes()) or (issuetype = ""Sprint Bug"" and statusCategory != Done )) ORDER BY rank ASC"
13469,Data Migration New,rkolos,"project = DM AND type in (Story, ""Technical Story"", Bug, Task, Spike, Epic, Security, subTaskIssueTypes()) OR category = Product AND Team in (""Data Migration - Banda"") AND type not in subTaskIssueTypes() ORDER BY Rank ASC"
12723,Platform Launch - 48 hour change log,jcharles,"category = Product AND issuetype in standardIssueTypes() AND fixVersion in (""Platform Launch 2018"") AND fixVersion was not in (""Platform Launch 2018"") before endOfDay(-2) AND status not in (Done, ""Done / Accepted"", ""Dev Complete"") ORDER BY project, team, created"
12726,Blocked CRMSRC 5,yschekotihin,"project = ""CRM Services"" AND sprint = 169  AND Team = ""CRM - Agent - Viperfish"" AND (Flagged = Impediment OR ""Blocked Reason"" is not EMPTY)"
12728,Blocked Hisenberg 5,yschekotihin,"project = ""CRM Services"" AND Team = ""CRM - Agent - Heisenberg""  AND (Flagged = Impediment OR ""Blocked Reason"" is not EMPTY)"
12730,Banda - Impediments,alevchuk,"team = ""Data Migration - Banda"" AND Sprint =137 AND (Flagged = Impediment OR (Flagged is EMPTY AND ""Blocked Reason"" is not EMPTY))"
12817,2018S1 - Not Viperfish points,alevchuk,"sprint = 63 AND team in (""CRM - Agent - Heisenberg"", ""CRM - Agent - Phoenix"") AND ""Story Points"" is not EMPTY and updatedDate &lt;= ""2018/01/18 11:40"""
12818,2018S2 Not Viperfish,alevchuk,"sprint = 101 AND (team in (""CRM - Agent - Heisenberg"", ""CRM - Agent - Phoenix"") OR team is EMPTY) AND ""Story Points"" is not EMPTY AND updatedDate &lt;= ""2018/02/01 16:10"""
12819,2018S3 Not Viperfish,alevchuk,"sprint = 126 AND (team in (""CRM - Agent - Heisenberg"", ""CRM - Agent - Phoenix"") OR team is EMPTY) AND ""Story Points"" is not EMPTY AND updatedDate &lt;= ""2018/02/14 16:13"""
12820,2018S4 Not Viperfish,alevchuk,"sprint = 152 AND (team in (""CRM - Agent - Heisenberg"", ""CRM - Agent - Phoenix"") OR team is EMPTY) AND ""Story Points"" is not EMPTY AND updatedDate &lt;= ""2018/03/01 11:30"""
12821,2018S5 Not Viperfish,alevchuk,"sprint = 169 AND (team in (""CRM - Agent - Heisenberg"", ""CRM - Agent - Phoenix"") OR team is EMPTY) AND ""Story Points"" is not EMPTY AND updatedDate &lt;= ""2018/03/15 11:30"""
12822,Outside my project (ASB),ljensen,"reporter = ljensen AND team != ""Account Services - Verde"" and project != ""Customer Onboarding"" and team != ""NV - Team 2"" "
17192,EX - Engineering Team Epics with Employees,cwhite,"project = EX AND Org = Engineering AND (type = Employee AND status != Inactive OR type = Epic AND labels = Team AND status = Active AND issue in epicsWhereIssueIn(""(type = Employee AND status != Inactive AND 'Epic Link' is not EMPTY)"")) ORDER BY cf[11212] ASC, issuetype DESC, cf[10401] DESC"
12433,Intelliswift Orphaned In Progress,tsussman,"Team = ""Intelliswift Team"" AND status != Done AND status != Idea AND status != ""To Do"" AND status != Defined AND status != ""Done / Accepted"" AND issuetype != Sub-task AND assignee is EMPTY"
12438,Intelliswift No Estimate,tsussman,"Team = ""Intelliswift Team""  AND ""Story Points"" is EMPTY AND status != ""Done / Accepted"" AND status != Done AND status != ""To Do"" AND status != Idea AND issuetype != Sub-task"
12448,Intelliswift In Progress,tsussman,"team in (""Intelliswift - Dialers"", ""Intelliswift - Tooling"") AND Sprint in openSprints() and status not in (Done, ""Done / Accepted"")"
12457,Intelliswift Code Review,tsussman,"Team = ""Intelliswift Team"" AND type in (Story, Spike, Bug, Task) AND status = ""Code Review"" "
12476,Intelli_Active_backlog,akhot,"issuetype in standardIssueTypes() AND (Sprint not in (491, 479) OR Sprint is EMPTY) AND Team in (""Intelliswift - Billing"", ""Intelliswift - Dialers"", ""Intelliswift - Tooling"", ""Intelliswift Team"") AND status not in (""Done / Accepted"", ""Dev Complete"", Done, Completed, Complete) AND (labels != Blocked AND labels != intelli_inactive_backlog OR labels is EMPTY) AND project not in (""Salesforce Dialers"", ""Partner Portal"") AND issuetype not in (Epic) ORDER BY status DESC, assignee ASC"
12477,Intelli_inactive_backlog,akhot,"issuetype in standardIssueTypes() AND (Sprint not in (491, 479) OR Sprint is EMPTY) AND Team in (""Intelliswift - Billing"", ""Intelliswift - Dialers"", ""Intelliswift - Tooling"", ""Intelliswift Team"") AND status not in (""Done / Accepted"", ""Dev Complete"", New, ""Parking Lot"", Research) AND labels != Blocked AND labels = intelli_inactive_backlog ORDER BY status DESC, assignee ASC"
12479,Intelli_taken_for_next_sprint,akhot,"issuetype in standardIssueTypes() AND Sprint in (491) AND Team in (""Intelliswift - Billing"", ""Intelliswift - Dialers"", ""Intelliswift - Tooling"", ""Intelliswift Team"") AND status not in (""Done / Accepted"", ""Dev Complete"") AND (labels != Blocked OR labels is EMPTY) ORDER BY status DESC, assignee ASC"
12502,Platform Launch 2018 Remaining Work,tsheehy,"category = Product AND issuetype in (story, task, spike) AND team not in (""CRM - Agent - Heisenberg"", ""CRM - Agent - Phoenix"") and fixVersion in (""Platform Launch 2018"") AND status not in (Done, ""Done / Accepted"", ""Dev Complete"") ORDER BY key ASC, fixVersion DESC"
17355,WhatMeWorry Release Board,khillman,"project in (AM, IAM, RM, DevOps) AND Team = WhatMeWorry AND status in (Accepted, Done) ORDER BY Rank ASC"
12322,IntelliBacklog,cburse,"issuetype in standardIssueTypes() AND status != ""Done / Accepted"" AND Team = ""Intelliswift Team"" ORDER BY status DESC, assignee ASC"
12331,Intelli_otherThanActive,akhot,"issuetype in standardIssueTypes() AND (Sprint not in (479) OR Sprint is EMPTY) AND Team in (""Intelliswift - Billing"", ""Intelliswift - Dialers"", ""Intelliswift - Tooling"", ""Intelliswift Team"") AND status not in (""Done / Accepted"", ""Dev Complete"", Done) AND (labels != Blocked OR labels is EMPTY) ORDER BY status DESC, assignee ASC"
12351,Phoenix Open/In-Progress Issues,sbhargav,"project = CRMSVC AND issuetype in standardIssueTypes() AND status in (""In Progress"", ""To Do"", Defined, Idea) AND resolution = Unresolved AND Team = ""CRM - Agent - Phoenix"" ORDER BY created DESC, priority DESC, updated DESC"
12352,Phoenix Team - Last 5 Minutes,sbhargav,"project = CRMSVC AND Team = ""CRM - Agent - Phoenix"" AND created &gt;= -5m"
12357,Active Filter,sharmila.begum,"issuetype in standardIssueTypes() AND Sprint in (238) AND Team = ""Intelliswift Team"" ORDER BY assignee ASC"
12358,Blocked Filter,sharmila.begum,"issuetype in standardIssueTypes() AND labels = Blocked AND Team = ""Intelliswift Team"" ORDER BY assignee ASC"
12359,Backlog Filter,sharmila.begum,"issuetype in standardIssueTypes() AND (Sprint not in (114) OR Sprint is EMPTY) AND Team = ""Intelliswift Team"" AND status not in (""Done / Accepted"") ORDER BY status DESC, assignee ASC"
12439,Filter for Site Reliability Engineering - Main Board,jcostella,"project = SRE AND type in (Story, Bug, Task, Spike, Epic, Security) OR category = Product AND Team = Apollo AND type in (Story, Bug, Task, Spike, Epic) ORDER BY Rank ASC"
12440,Filter for Apollo Kanban,jcostella,"project = SRE AND Team = Apollo OR Team = Apollo OR project = PS AND type in subTaskIssueTypes() AND issue in issuesSubtasks(""Team = Apollo"") ORDER BY Rank ASC"
17314,Iteration_1,vhimpel,"project in (AN, CRMS) AND labels = Iteration_1 AND Team = ""Analytics - Octagon"" ORDER BY updated DESC"
12924,Mobile Main ,khillman,"project = Mobile  AND type in (Story, ""Technical Story"", Bug, Task, Spike, Epic) OR category = Product AND Team in (""Team Tasty Treats/Team Meseeks"") ORDER BY Rank ASC"
13014,Intelliswift - Open PR,tsussman,"team = ""Intelliswift Team""  AND statusCategory = Done AND issue.property[development].openprs &gt; 0"
13015,SQV2 - Open PR,tsussman,"team = ""SalesQuote - Team 1""  AND statusCategory = Done AND issue.property[development].openprs &gt; 0"
13020,Roxbury - Critical Bugs,tsussman,"Team = ""SalesQuote - Team 1""  AND issuetype = Bug AND status != done AND status != ""Done / Accepted"" AND (priority = Critical OR priority = Major)"
13021,Roxbury - Done with Open PR,tsussman,"team = ""SalesQuote - Team 1""  AND statusCategory = Done AND issue.property[development].openprs &gt; 0"
13034,Roxbury - Accepted in Sprint,tsussman,"Team = ""SalesQuote - Team 1""  AND type in (Story, Spike, Bug, Task, ""Technical Story"") AND sprint in openSprints() AND status = ""Done / Accepted"" "
13036,Roxbury - In Progress in Sprint,tsussman,"Team = ""SalesQuote - Team 1""  AND type in (Story, Spike, Bug, Task, ""Technical Story"") AND sprint in openSprints() AND (status = ""In Progress"" OR status  = ""Code Review"" OR status = ""Code Merged"" OR status = ""Feature Testing"" OR status = ""Integration Testing"" )"
13038,Roxbury - ToDo in Sprint,tsussman,"Team = ""SalesQuote - Team 1""  AND type in (Story, Spike, Bug, Task, ""Technical Story"") AND sprint in openSprints() AND (status = Idea OR status = Defined)"
14914,Roxbury - Impediments,tsussman,"team = ""SalesQuote - Team 1""  AND Flagged = Impediment"
14118,Javelin board,apavalaev,"project = CRMSVC AND Team in (Javelin) OR category = Product AND Team in (Javelin) OR project = ""Builder Tools""  ORDER BY Rank ASC"
14120,Filter for Ca$h Money - Kanban Board,tsussman,"project = NV AND Team = ""Voice - Ca$h Money"" AND type in (Story, ""Technical Improvement"", Bug, Task, Spike, Epic, Security) OR category = Product AND team in (""Voice - Ca$h Money"") AND type in (Story, ""Technical Improvement"", Bug, Task, Spike, Epic, Security)  ORDER BY Rank ASC"
17029,DCH Board,anna.azarevych,"category = product AND project = DCH AND (Team = Zen OR issue in parent(""team = \""Zen\"" "")) AND issuetype in (standardIssueTypes(), subTaskIssueTypes()) ORDER BY priority desc"
12176,Filter for Digital SMS - Main Board,jcostella,"project = DSMS AND type in (Story, ""Technical Improvement"", Bug, Task, Spike, Epic, Security) OR category = Product AND Team in (""Digital SMS - Team 1"") AND type not in subTaskIssueTypes() ORDER BY Rank ASC"
12173,Filter for Dashboard - Octagon Board,jcostella,"project = DASH AND Team in (""Dashboard Builder - Octagon"") OR Team in (""Dashboard Builder - Octagon"") OR project = DASH AND type in subTaskIssueTypes() AND issue in issuesSubtasks(""Team = 'Dashboard Builder - Octagon'"") ORDER BY Rank ASC"
12171,Filter for Identity/Access Mgmt - Main Board,jcostella,"project = IAM AND type in (Story, ""Technical Improvement"", Bug, Task, Spike, Epic, Security) OR category = Product AND Team in (""IAM - Team PTO"") ORDER BY Rank ASC"
12161,Filter for Builder Tools - Main Board,jcostella,"project = BT AND type in (""Technical Improvement"", Story, Bug, Task, Spike, Epic, Security) OR category = Product AND Team in (""Builder Tools Team"") ORDER BY Rank ASC"
12160,Filter for Partner Portal - Main Board,jcostella,"project = PP AND type in (Story, ""Technical Improvement"", Bug, Task, Spike, Epic, Security) OR category = Product AND Team in (""Partner Portal - Team 1"") AND type not in subTaskIssueTypes() ORDER BY Rank ASC"
12157,Filter for Nextiva Voice - Ca$h Money Board,jcostella,"project = NV AND Team in (""Voice - Ca$h Money"") OR category = Product AND Team in (""Voice - Ca$h Money"") OR project = NV AND type in subTaskIssueTypes() AND issue in issuesSubtasks(""Team = 'Voice - Ca$h Money'"") ORDER BY Rank ASC"
12156,Filter for Nextiva Voice - Main Board,jcostella,"project = NV AND type in (Story, ""Technical Improvement"", Bug, Task, Spike, Epic, Security) OR category = Product AND Team in (""Voice - Ca$h Money"", ""Big Tymers"") AND type not in subTaskIssueTypes() ORDER BY Rank ASC"
12154,Filter for SalesQuote V2 - Team 1 Board,jcostella,"project = SQV AND Team in (""SalesQuote - Team 1"") OR category = Product AND Team in (""SalesQuote - Team 1"") OR project = SQV AND type in subTaskIssueTypes() AND issue in issuesSubtasks(""Team = 'SalesQuote - Team 1'"") ORDER BY Rank ASC"
12153,Filter for SalesQuote V2 - Main Board,jcostella,"project = SQV AND type in (Story, ""Technical Improvement"", Bug, Task, Spike, Epic, Security) OR category = Product AND Team in (""SalesQuote - Team 1"") AND type not in subTaskIssueTypes() ORDER BY Rank ASC"
13313,Voice/Tooling Launch Risks,bbarr,"Project in (ACE, SQ, SE) AND fixVersion = ""Launch Regression Bugs"" AND (status in (defined, idea) OR assignee is EMPTY) ORDER BY project, team"
13319,Filter for Intelliswift - Tooling Board,jcostella,"category = Product AND Team in (""Intelliswift - Tooling"") OR type in subTaskIssueTypes() AND issue in issuesSubtasks(""Team = 'Intelliswift - Tooling'"") ORDER BY Rank ASC"
17111,Blackbird - Kanban Board,zhanna.mironchuk,"project = CRMS AND Team = Blackbird OR category in (Product, Development) AND Team = Blackbird ORDER BY Rank ASC"
13370,ppv2_fe_backlog,akhot,"issuetype in standardIssueTypes() AND issueType not in (Epic) AND (Sprint not in (491, 479) OR Sprint is EMPTY) AND Team in (""Intelliswift - Billing"", ""Intelliswift - Dialers"", ""Intelliswift - Tooling"", ""Intelliswift Team"") AND status not in (""Done / Accepted"", ""Dev Complete"", Done) AND (labels != Blocked AND labels not in (intelli_inactive_backlog) OR labels is EMPTY) AND labels in (ppv2_front_end) AND Project in (""Partner Portal"") ORDER BY status DESC, assignee ASC"
13401,Intelli_inprogress_issues,akhot,"issuetype in standardIssueTypes() AND Sprint in (479) AND Team in (""Intelliswift - Billing"", ""Intelliswift - Dialers"", ""Intelliswift - Tooling"", ""Intelliswift Team"") AND status not in (Done, ""Done / Accepted"", ""Dev Complete"", ""Feature Testing"", ""Integration Testing"") AND (Flagged not in (Impediment) OR Flagged is EMPTY) AND key not in (SQ-737) ORDER BY assignee ASC"
13402,Intelli_done_so_far,akhot,"issuetype in standardIssueTypes() and issuetype not in (Epic,Sub-task) AND (Sprint not in (491) OR sprint is EMPTY) AND status in (Done, ""Done / Accepted"") AND Team in (""Intelliswift - Billing"", ""Intelliswift - Dialers"", ""Intelliswift - Tooling"", ""Intelliswift Team"") AND (labels not in (intelli_routine_tasks) OR labels is EMPTY) ORDER BY assignee ASC"
13406,MyFilter,cburse,"issuetype in standardIssueTypes() AND Sprint in (276, 277) AND Team in (""Intelliswift - Billing"", ""Intelliswift - Dialers"", ""Intelliswift - Tooling"", ""Intelliswift Team"") ORDER BY assignee ASC"
13411,Viperfish 1 SP,alevchuk,"project = CRMSVC AND Team = ""CRM - Agent - Viperfish"" AND ""Story Points"" = 1 AND statusCategory = Done ORDER BY updated DESC"
13412,Viperfish 3 SP,alevchuk,"project = CRMSVC AND Team = ""CRM - Agent - Viperfish"" AND ""Story Points"" = 3 AND statusCategory = Done ORDER BY updated DESC"
13413,Viperfish 5 SP,alevchuk,"project = CRMSVC AND Team = ""CRM - Agent - Viperfish"" AND ""Story Points"" = 5 AND statusCategory = Done ORDER BY updated DESC"
13414,Viperfish 8 SP,alevchuk,"project = CRMSVC AND Team = ""CRM - Agent - Viperfish"" AND ""Story Points"" = 8 AND statusCategory = Done ORDER BY updated DESC"
13415,Viperfish 13 SP,alevchuk,"project = CRMSVC AND Team = ""CRM - Agent - Viperfish"" AND ""Story Points"" = 13 AND statusCategory = Done ORDER BY updated DESC"
13417,intelli_current_impediments,akhot,"issuetype in standardIssueTypes() AND Sprint in (479) AND Team in (""Intelliswift - Billing"", ""Intelliswift - Dialers"", ""Intelliswift - Tooling"", ""Intelliswift Team"") AND status not in (Done, ""Done / Accepted"", ""Dev Complete"") AND Flagged in (Impediment) ORDER BY assignee ASC"
13418,intelli_in_testing,akhot,"issuetype in standardIssueTypes() AND Sprint in (479) AND Team in (""Intelliswift - Billing"", ""Intelliswift - Dialers"", ""Intelliswift - Tooling"", ""Intelliswift Team"") AND (Flagged not in (Impediment) OR Flagged is EMPTY) AND key not in (SQ-737) AND status in (""Feature Testing"", ""Integration Testing"") ORDER BY assignee ASC"
16705,Items In Progress without a Team Field,zhanna.mironchuk,"category = product AND type in (story, ""Technical Improvement"", bug) AND statusCategory = ""In Progress"" AND team is EMPTY"
17374,Metadone Kanban Board New (Oct/2019),shavryliuk,"project = CRMS AND Team = MetaDone OR category in (Product) AND Team = MetaDone OR assignee in (sdiadechko, akiriukha, ypogorelova, alla.nasonova, rrudnyk, yevhen.pannochka) ORDER BY Rank ASC"
13622,Notifications - Main Board Filter,jcostella,"project = NOTIF AND type in (Story, ""Technical Improvement"", Bug, Task, Spike, Security, subTaskIssueTypes()) OR category = Product AND type in (Story, ""Technical Improvement"", Bug, Task, Spike, Security, subTaskIssueTypes()) AND Team in (""Notification Service - Team 1"") OR project = NOTIF AND type = Epic AND status not in (Done, ""Parking Lot"") ORDER BY Rank ASC"
16960,Filter for Monarchs Board,jcostella,"project = DM AND issuetype != Sub-task OR category = product AND Team = ""Data Migration - Monarchs"" AND issuetype != Sub-task ORDER BY Rank ASC"
14907,In Progress Tickets - No Team,jcostella,"category = Product AND type in (Story, Bug, ""Technical Improvement"") AND statusCategory = ""In Progress"" AND Team is EMPTY"
14309,Guacamolepers - Team Board Filter,jcostella,category = Product AND team in (Guacamolepers) ORDER BY Rank ASC
14311,intelli_backlog,akhot,"Team = ""Intelliswift - Tooling"" AND sprint is EMPTY AND type in standardIssueTypes() AND status not in (Done, ""Done / Accepted"", New, ""Awaiting Approval"", Resolved, Research) AND type not in (Epic) ORDER BY cf[10800] ASC"
14321,Viperfish - CRM&amp;BT,opidperygora,"project in (CRMSVC, ""Builder Tools"") AND Team in (""CRM - Agent - Viperfish"") or project in (""Builder Tools"") ORDER BY Rank ASC"
17030,Chat Board,anna.azarevych,"category = product AND project = DCH AND (Team = ""Megan Fox"" OR issue in parent(""team = \""Megan Fox\"" "")) AND issuetype in (standardIssueTypes(), subTaskIssueTypes()) ORDER BY priority DESC"
14308,Filter for Dialers Kanban,tsussman,"category = Product AND Team in (""Intelliswift - Dialers"") ORDER BY Rank ASC"
13977,inP,hanna.podoliak,"project = ""CRM Services"" AND Sprint is EMPTY AND  statusCategory = ""In Progress"" ORDER BY cf[11212] ASC, updated ASC"
13963,Surveys - Tundra Board,jcostella,"project = SRV AND Team in (""Surveys - Tundra"") OR category = Product AND Team in (""Surveys - Tundra"") OR project = SRV AND type in subTaskIssueTypes() AND issue in issuesSubtasks(""Team = 'Surveys - Tundra'"") ORDER BY Rank ASC"
13964,Surveys - Main Board,jcostella,"project = SRV AND type in (Story, ""Technical Improvement"", Bug, Task, Spike, Epic) OR category = Product AND Team in (""Surveys - Tundra"") AND type not in subTaskIssueTypes() ORDER BY Rank ASC"
13976,sprint 15,sharmila.begum,"issuetype in standardIssueTypes() AND Sprint in (381, 380) AND Team in (""Intelliswift - Dialers"", ""Intelliswift - Tooling"", ""Intelliswift Team"", ""Intelliswift - Billing"")"
16530,DCH Kanban,viktor.kutvin,"category = product AND project = DCH AND (Team = Zen OR issue in parent(""team = \""Zen\"" "")) AND issuetype in (standardIssueTypes(), subTaskIssueTypes()) ORDER BY Rank ASC"
14392,WSR_WeeklyStories,stambade,"issuetype in standardIssueTypes() AND Sprint = 466 AND Team in (""Intelliswift - Dialers"", ""Intelliswift - Tooling"", ""Intelliswift Team"", ""Intelliswift - Billing"") AND updated &gt;= 2018-10-22 AND updated &lt;= 2018-10-26"
15115,CRM Agent Regression break Yes,rhonyshniuk,"project = ""CRM Services"" AND Team = ""CRM - Agent - Viperfish"" AND issuetype = Bug AND ""Regression Break"" = Yes AND resolution = Unresolved ORDER BY priority DESC"
15116,CRM Agent Regression break No,rhonyshniuk,"project = ""CRM Services"" AND Team = ""CRM - Agent - Viperfish"" AND issuetype = Bug AND ""Regression Break"" = No AND resolution = Unresolved ORDER BY priority DESC"
15117,CRM Agent Regression break Not Verified,rhonyshniuk,"project = ""CRM Services"" AND Team = ""CRM - Agent - Viperfish"" AND issuetype = Bug AND ""Regression Break"" = ""Not Verified""  AND resolution = Unresolved ORDER BY priority DESC"
15118,CRM Agent Found in DEV,rhonyshniuk,"project = ""CRM Services"" AND Team = ""CRM - Agent - Viperfish"" AND issuetype = Bug AND ""Found in Environment"" = Dev AND NOT  ""Recreated in Environment(s)"" in (""QA (RC)"", ""Prod"") AND resolution = Unresolved ORDER BY priority DESC"
15119,CRM Agent Found in RC,rhonyshniuk,"project = ""CRM Services"" AND Team = ""CRM - Agent - Viperfish"" AND issuetype = Bug AND ""Found in Environment"" = ""QA (RC)"" AND NOT  ""Recreated in Environment(s)"" = ""Prod"" AND resolution = Unresolved ORDER BY priority DESC"
15120,CRM Agent Found in PROD,rhonyshniuk,"project = ""CRM Services"" AND Team = ""CRM - Agent - Viperfish"" AND issuetype = Bug AND (""Found in Environment"" = Prod OR ""Recreated in Environment(s)"" = Prod ) AND resolution = Unresolved ORDER BY priority DESC"
15126,Analytics Core Team Board Filter v2,pyakimenko,"Team = ""Analytics - Core Team"" AND issuetype != Epic AND project not in (PTO, EX) ORDER BY Rank ASC"
15050,Los Curados Filter,khillman,"type in (Story, ""Technical Story"", Bug, Task, Spike, Epic, Security) AND Team in (""Los Curados"") ORDER BY Rank ASC"
13805,Viperfish PTO,opidperygora,"project =""PTO Requests"" and Team = ""CRM - Agent - Viperfish"" "
13807,Filter for Finance Kanban Board,jcostella,project = FIN OR category = Product AND Team in (Finance) ORDER BY Rank ASC
13816,intelli_all_done,akhot,"issuetype in standardIssueTypes() AND status in (Done, ""Done / Accepted"") AND Team in (""Intelliswift - Billing"", ""Intelliswift - Dialers"", ""Intelliswift - Tooling"", ""Intelliswift Team"") ORDER BY assignee ASC"
13934,intelli_s12,akhot,"issuetype in standardIssueTypes() AND status in (Done, ""Done / Accepted"") AND Sprint in (289,290) AND Team in (""Intelliswift - Dialers"", ""Intelliswift - Tooling"", ""Intelliswift Team"", ""Intelliswift - Billing"")"
16961,Data Migration - Monarchs,khillman,"project = DM OR category = product AND Team = ""Data Migration - Monarchs""  ORDER BY Rank ASC"
13914,Unreleased check,apavalaev,"category = Product AND statusCategory = Done AND fixVersion = EMPTY AND (type = Story OR type = Bug OR type = ""Technical Story"") AND ""Won't Release"" = EMPTY AND (project  in (""Dashboard Builder"", Calendar, ""Rules Engine"", ""Builder Tools"") or (project = ""CRM Services"" and Team = Javelin ))"
13917,Prod-Dev WIP no status change in 10 days,jcharles,"statusCategory = ""In Progress"" AND category = Product AND issuetype not in (epic, spike) AND (NOT status changed after -10d OR assignee is EMPTY)  ORDER BY project, Team, updated ASC"
13918,My All work,ygaonkar,"project in (PP, RC) AND issuetype in (Bug, Epic, Story, Task, ""Technical Story"", ""Sprint Bug"", Sub-task) AND status in (New, ""To Do"", ""Parking Lot"", Research, ""Ready for Grooming"", Defined, ""In Progress"", ""Code Review"", ""Code Merged"", ""Integration Testing"", ""Feature Testing"", ""Dev Complete"", Done, ""Done / Accepted"") AND Team = ""Intelliswift - Tooling"" AND assignee in (ygaonkar)"
13919,WIP,apavalaev,"statusCategory = ""In Progress"" AND category = Product AND (project in(Calendar, ""Dashboard Builder"", ""Rules Engine"", ""Builder Tools"") OR (project = ""CRM Services""  and Team = Javelin )) AND issuetype not in (epic, spike) AND (NOT status changed after -10d OR assignee is EMPTY) ORDER BY project, Team, updated ASC"
13920,AN - WIP no status change in the last 10 days,psinielnikov,"project = AN and statusCategory = ""In Progress"" AND category = Product AND issuetype not in (epic, spike) AND (NOT status changed after -10d OR assignee is EMPTY) ORDER BY project, Team, updated ASC"
13921,AN - WIP no status change in the last 7 days,psinielnikov,"project = AN AND statusCategory = ""In Progress"" AND category = Product AND issuetype not in (epic, spike) AND (NOT status changed after -7d OR assignee is EMPTY) ORDER BY project, Team, updated ASC"
13922,AN - WIP no status change in the last 30 days,psinielnikov,"project = AN AND statusCategory = ""In Progress"" AND category = Product AND issuetype not in (epic, spike) AND (NOT status changed after -30d OR assignee is EMPTY) ORDER BY project, Team, updated ASC"
13923,Next UI Stagnant,ivanmontiel,"project = NUI and statusCategory = ""In Progress"" and category = Product and issuetype not in (epic, spike) and (not status changed after -10d or assignee is empty) order by project, Team, updated asc"
13925,Rolled Over Filter,mmorankar,"issuetype in standardIssueTypes() AND status in (Done, ""Done / Accepted"") AND Sprint in (317, 316) AND Team in (""Intelliswift - Dialers"", ""Intelliswift - Tooling"", ""Intelliswift Team"", ""Intelliswift - Billing"") ORDER BY assignee ASC"
13928,All Tasks,mmorankar,"issuetype in (standardIssueTypes(), subTaskIssueTypes()) AND status in (Done, ""Done / Accepted"") AND Sprint = 86 AND Team in (""Intelliswift - Billing"", ""Intelliswift - Dialers"", ""Intelliswift - Tooling"", ""Intelliswift Team"") ORDER BY assignee ASC"
13932,intelli_s1,akhot,"issuetype in standardIssueTypes() AND Sprint not in (361, 362) AND status in (Done, ""Done / Accepted"") AND Team in (""Intelliswift - Billing"", ""Intelliswift - Dialers"", ""Intelliswift - Tooling"", ""Intelliswift Team"") AND Sprint in ( 86,70,75)"
13933,intelli_s13,akhot,"issuetype in standardIssueTypes() AND status in (Done, ""Done / Accepted"") AND Sprint in (316,317) AND Team in (""Intelliswift - Dialers"", ""Intelliswift - Tooling"", ""Intelliswift Team"", ""Intelliswift - Billing"")"
13935,intelli_s14,akhot,"issuetype in standardIssueTypes() AND status in (Done, ""Done / Accepted"") AND Sprint in (343,344) AND Team in (""Intelliswift - Dialers"", ""Intelliswift - Tooling"", ""Intelliswift Team"", ""Intelliswift - Billing"")"
15614,INP-10d Heisenberg,hanna.podoliak,"Team = ""CRM - Agent - Heisenberg""  AND type != Epic AND status = ""In Progress"" AND NOT status changed after -10d"
16757,NoEpic Zen,viktor.kutvin,"category = Product AND issuetype in (Story, ""Technical Improvement"", Bug, Security) AND statusCategory = ""In Progress"" AND ""Epic Link"" is EMPTY AND Team = Zen ORDER BY key ASC"
14617,Impediments,stambade,"issuetype in standardIssueTypes() AND Flagged = Impediment AND Sprint = 466 AND Team in (""Intelliswift - Dialers"", ""Intelliswift - Tooling"", ""Intelliswift Team"", ""Intelliswift - Billing"")"
17034,In Progress more than 14d,zhanna.mironchuk,"category = product AND project = Analytics AND type in (Security, Story, ""Technical Improvement"") AND created &lt;= -14d AND statusCategory = ""In Progress"" AND NOT status changed after -14d ORDER BY cf[11212] ASC, status ASC"
16758,NoEpic MeganFox,viktor.kutvin,"category = Product AND issuetype in (Story, ""Technical Improvement"", Bug, Security) AND statusCategory = ""In Progress"" AND ""Epic Link"" is EMPTY AND Team = ""Megan Fox""  ORDER BY key ASC"
14618,Calendar Kanban - Board Filter,jcostella,"Team in (""Los Curados"") ORDER BY Rank ASC"
14168,Filter for Voice - Ca$h Money Kanban Board,jcostella,"type in (Story, ""Technical Improvement"", Bug, Task, Spike, Epic, Security) AND Team in (""Voice - Ca$h Money"") ORDER BY Rank ASC"
14202,Interactions Kanban Board,mvorobjov,"project = ""IN"" OR Team = ""Interactions - Javelin"" ORDER BY Rank ASC"
14164,GDL - Team 1,tsussman,"project in (""Sales Quote webapp"", ""Reseller Channel"") AND Team in (""SQ - RC - Reatas"", ""Golden Rooster"", Mariachis) AND issuetype not in (subTaskIssueTypes(), Epic) OR category = Product AND Team in (""SQ - RC - Reatas"", ""Golden Rooster"", Mariachis) AND issuetype not in (subTaskIssueTypes(), Epic) ORDER BY Rank ASC"
14866,Impediments-Sprint-22,rtile,"issuetype in standardIssueTypes() AND Flagged = Impediment AND Sprint = 479 AND Team in (""Intelliswift - Billing"", ""Intelliswift - Dialers"", ""Intelliswift - Tooling"", ""Intelliswift Team"")"
14873,Filter for Trompo de Pastor Kanban,khillman,"project = ""Integration - Platform"" AND type in (Story, ""Technical Story"", Bug, Task, Spike, Epic, Security) AND Team in (""Trompo de Pastor"") ORDER BY Rank ASC"
14874,Filter for Dashboard Builder Kanban Board,pyakimenko,"project = DASH OR Team = ""Dashboard Builder - Octagon"" and issuetype != ""QA Change Request""  ORDER BY Rank ASC"
16329,old deployement,zhanna.mironchuk,"project = Analytics AND Team in (""Analytics - Analytics Data"", ""Analytics - Alpha"", ""Analytics - Chillers"", ""Analytics - Octagon"", ""Analytics - VoiceOverflow"") ORDER BY Rank ASC"
15248,"Employees - Analytics, Dashboard",jcharles,"project = ex AND issuetype = employee AND status = active AND Department in (Architecture, Engineering, QA) AND (Products is not EMPTY OR ""Is Manager"" = yes) AND Products in (Analytics, Dashboard) ORDER BY ""Is Manager"" asc,  Products ASC, Team ASC, Department ASC, summary ASC"
15263,Filter for Los Corados - Kanban,tsussman,"type in (Story, ""Technical Improvement"", Bug, Task, Spike, Epic, Security) AND (Team in (""Los Curados"") OR project = Calendar  AND Team = ""Los Curados"" ) ORDER BY Rank ASC"
16726,Create in 24 h,hanna.podoliak,"Team in(Hammer, Blackbird, MetaDone, ""Interactions - Javelin"") AND created &gt; -1d"
17057,Alpha - In progress,vhimpel,"project = AN AND issuetype = Epic AND status = ""In Progress"" AND Team = ""Analytics - Alpha"" ORDER BY updated DESC"
15625,Filter for Voice Team 2 - Kanban Board,tsussman,"project = NV AND Team = ""Big Tymers"" AND type in (Story, ""Technical Improvement"", Bug, Task, Spike, Epic, Security) OR category = Product AND team in (""Big Tymers"") AND type in (Story, ""Technical Improvement"", Bug, Task, Spike, Epic, Security) ORDER BY Rank ASC"
15629,Filter for SalesQuote V2 - Team 2 Board,tsussman,"project = SQV AND Team in (""SalesQuote - Team 1"") OR category = Product AND Team in (""SalesQuote - Team 1"") ORDER BY Rank ASC"
16534,Blackbird Impediment ,hanna.podoliak,Team = Blackbird  and Flagged = Impediment             
16781,Voice work in production during specified timeframe,bkelly,"(project = Voice OR Team in (""Voice - Ca$h Money"", ""Smack My Voice Up"")) AND resolutiondate &gt; 2019-3-01 AND resolutiondate &lt; 2019-4-05 AND project != ""Release Management"" AND issuetype in (Story, bug, ""Technical Improvement"", Security) AND resolution not in (Auto-Closed, ""Cannot Reproduce"")"
17256,Octagon + Taras Voinarovskyi,shavryliuk,"project = Analytics AND Team = ""Analytics - Octagon"" OR category in (Development, Product) AND Team = ""Analytics - Octagon"" AND Team = ""Analytics - Analytics Data"" OR assignee = tvoinarovskyi ORDER BY Rank ASC"
16535,Hammer Impediment ,hanna.podoliak,"Team = Hammer AND ""Blocked Reason"" is not EMPTY AND status not in (Done, ""Done / Accepted"")"
15651,team in progress is EMPTY,hanna.podoliak,"project in (""CRM Sales"",""CRM Services"",Interactions, ""Rules Engine"") AND type in (story, ""Technical Improvement"", bug) AND statusCategory = ""In Progress"" AND team is EMPTY"
15659,time in status,hanna.podoliak,"Team = ""CRM - Agent - Heisenberg"" AND issuetype in (Story,""Technical Improvement"",Bug) and status in (Defined,""In Progress"",""Code Review"",""Code Merged"",""In Testing"",""Waiting for Acceptance"",Accepted)"
15645,Viperfish Epic is EMPTY ,hanna.podoliak,"Team = ""CRM - Agent - Viperfish"" AND issuetype in (Story, ""Technical Improvement"",Task,Spike) and status in (""Ready for Grooming"",Defined, ""To Do"", ""In Progress"", ""Code Review"",""Code Merged"", ""In Testing"", ""Waiting for Acceptance"", Accepted, ""Ready for Release"") AND ""Epic Link"" is EMPTY "
15650,W4A Heisenberg,hanna.podoliak," Team = ""CRM - Agent - Heisenberg""  AND type != Epic AND status = ""Waiting for Acceptance"""
16916,Unassigned In Progress Work,zhanna.mironchuk,"category = product AND type in (Story, ""Technical Improvement"", Bug, Security) AND statusCategory = ""In Progress"" AND assignee is EMPTY ORDER BY key ASC, updated DESC, cf[11212] ASC, assignee ASC"
16917,Unassigned In Progress Work,hanna.podoliak,"project in (CrmS, Activities, ""Builder Tools"") AND type in (Story, ""Technical Improvement"", Bug, Security) AND statusCategory = ""In Progress"" AND assignee is EMPTY ORDER BY key ASC, updated DESC, cf[11212] ASC, assignee ASC"
15507,TV: CR 24hours,pyakimenko,"project in (AN, DASH) AND status = ""Code Review"" AND category = Product AND issuetype not in (epic, spike) AND (NOT status changed after -24h OR assignee is EMPTY) ORDER BY project, Team, updated ASC"
15440,AN - IN CODE REVIEW &gt;48h,psinielnikov,"project in (AN) AND status = ""Code Review"" AND category = Product AND issuetype not in (epic, spike) AND (NOT status changed after -48h OR assignee is EMPTY) ORDER BY project, Team, updated ASC"
16742,Team Epics - EX,jcostella,"project = EX AND type = Epic AND status = Active AND Team not in (""Help Desk"", ""Project Management"", TARDIS, ""UX Design Team"") ORDER BY summary ASC"
16307,next sprint,hanna.podoliak,"Team = ""CRM - Agent - Viperfish"" AND Sprint = 545  "
15918,prod be,hanna.podoliak,"issuetype = Bug AND resolution = Unresolved AND ""Found in Environment"" = Prod AND status = Defined AND project in (""CRM Sales"", ""CRM Services"") AND Team = ""CRM - Agent - Heisenberg"" "
15923,Previous Releases,egarcia,"project = ""Release Management"" and status = Done AND Team in (""SQ - RC - Reatas"", ""Guacamolepers"", Mariachis, ""Golden Rooster"")"
15925,WhatMeworry IP,rdavis,"Team = WhatMeWorry AND statusCategory = ""In Progress"" AND project != ""Engineer Experience"" AND issuetype != Epic"
16332,not included in confluence,vhimpel,"project = AN AND issuetype = Epic AND status in (New, ""Parking Lot"", Research, Defined, ""In Progress"") AND Team in (""Account Services - ITeam4j"", ""Account Services - Verde"", ""Analytics - Core Team"", ""Analytics - Feature Team 1"", ""Analytics - Feature Team 2"", ""Analytics - Support Team"", ""Analytics - Team 1"", ""Architecture - Kyiv"", ""Architecture - Scottsdale"", ""CRM - Agent - Heisenberg"", ""CRM - Agent - Viperfish"", ""CRM - Data Migration"", ""CRM - Sales"", ""Cust Setup Tools - Team 1"", ""Dashboard Builder - Octagon"", ""Data Migration - Banda"", ""Data Migration - Monarchs"", ""DevOps Team"", ""Digital SMS - Team 1"", ""Email Marketing - Mailto"", ES-TheRobots, ""External Chat"", Finance, FIXME, ""Golden Rooster"", Guacamolepers, ""IAM - Team PTO"", ""Infrastr Team"", ""INT - Voice"", ""QA Core Team"") ORDER BY summary ASC, created DESC"
16941,Chillers - In progress,vhimpel,"project = AN AND issuetype = Epic AND status = ""In Progress"" AND Team = ""Analytics - Chillers"" order by updated DESC"
15300,In Progress -- Team is Empty,jcostella,"category = product and type in (story, ""Technical Improvement"", bug) and statusCategory = ""In Progress"" AND team is empty"
15400,Employees - Security,jcharles,"project = ex AND issuetype = employee AND status = active AND Team = ES-TheRobots   ORDER BY ""Is Manager"" ASC, Products ASC, Location ASC, Summary"
16353,[old] Deployment Kanban board sub-filter,zhanna.mironchuk,"fixVersion in unreleasedVersions() OR fixVersion is EMPTY and issuetype != Epic and Team != ""Analytics - Core Team"" "
16333,epics with empty team,vhimpel,"project = AN AND issuetype = Epic AND status in (New, ""Parking Lot"", Research, Defined, ""In Progress"") and Team = empty ORDER BY summary ASC, created DESC"
16409,In Progress -- Team is Empty,zhanna.mironchuk,"category = product AND type in (story, ""Technical Improvement"", bug) AND statusCategory = ""In Progress"" AND team is EMPTY"
16994,Billing Work for SMVU,tsussman,"issueFunction in linkedIssuesOf(""issuetype = Epic and labels = BillingMVP"", ""is epic of"") AND team = ""Smack My Voice Up"" ANd statusCategory = ""To Do"""
16802,In Progress - Non Roadmap2019,cwhite,"category = product AND type in (Story, ""Technical Improvement"", Bug, Security) AND statusCategory = ""In Progress"" AND NOT issue in issuesWhereEpicIn(""category = Product AND labels = Roadmap2019"") ORDER BY cf[11212] ASC, assignee ASC"
16995,Billing Epics for SMVU,tsussman,"Team = ""Smack My Voice Up"" and issuetype = Epic and labels = BillingMVP "
16410,Team Field Cleanup,zhanna.mironchuk,"category = Product AND type in (Story, Bug, ""Technical Improvement"") AND team is EMPTY AND statusCategory = Done AND resolution not in (Duplicate, Auto-Closed, Canceled, Declined, ""Fixed by another change"", ""Cannot Reproduce"", ""Need More Info"", ""Not a Bug"", ""No Response from Customer"", ""Working As Designed"", ""Won't Do"") AND fixVersion is not EMPTY AND ""Won't Release"" is EMPTY AND (createdDate &gt;= startOfYear() OR resolved &gt;= startOfYear()) ORDER BY project ASC"
16412,In Progress -- Team is Empty,hanna.podoliak,"category = product AND type in (story, ""Technical Improvement"", bug) AND statusCategory in (""In Progress"") AND team is EMPTY"
16413,Team Field Cleanup,hanna.podoliak,"category = Product AND type in (Story, Bug, ""Technical Improvement"") AND team is EMPTY AND statusCategory = Done AND resolution not in (Duplicate, Auto-Closed, Canceled, Declined, ""Fixed by another change"", ""Cannot Reproduce"", ""Need More Info"", ""Not a Bug"", ""No Response from Customer"", ""Working As Designed"", ""Won't Do"") AND fixVersion is not EMPTY AND ""Won't Release"" is EMPTY AND (createdDate &gt;= startOfYear() OR resolved &gt;= startOfYear()) ORDER BY project ASC"
16342,RFG,hanna.podoliak,"project = ""CRM Services"" AND Team = ""CRM - Agent - Viperfish"" AND status = ""Ready for Grooming"" "
17266,Octagon + Taras + other projects tickets,shavryliuk,"project = Analytics AND Team = ""Analytics - Octagon"" OR category in (Development, Product) AND Team = ""Analytics - Octagon"" AND Team = ""Analytics - Analytics Data"" OR assignee in (tvoinarovskyi, skateryna, ovyazovoy, pmarchenko, mboudnik, dpechenev) ORDER BY Rank ASC"
17210,-4 Eng Org cross-team roles cleanup,cwhite,"project = EX AND Org = Engineering AND Team != ""N/A"" AND status = Active AND Name not in inactiveUsers() AND type = Employee AND Team is not EMPTY AND ""Epic Link"" is EMPTY AND ""Internal Job Title"" in (""Agile Coach"", ""Manager - QA"", ""Manager - Engineering"", ""Technical Business Analyst"", ""QA Coach"", ""QA Automation"", ""Scrum Master"", ""Product Manager"") ORDER BY cf[12801] ASC"
16997,Filter for MKTG &amp; CRM,mariia.lobachova,"project = MKTG AND type in (Story, ""Technical Improvement"", Bug, Task, Spike, Epic) OR category = Product AND Team in (""Marketing - Mailto"") AND type not in subTaskIssueTypes() ORDER BY Rank ASC"
16470,Voice Overflow,vhimpel,"project = AN AND issuetype = Story AND status in (New, ""Ready for Grooming"") AND Team = ""Analytics - VoiceOverflow"" ORDER BY created DESC"
16000,Golden Rooster Basic Filter,oloeza,"Team = ""Golden Rooster"""
15652,Team is empty ,hanna.podoliak,"project in (""CRM Sales"", ""CRM Services"", Interactions, ""Rules Engine"",""Builder Tools"") AND type in (Story, Bug, ""Technical Improvement"") AND team is EMPTY AND statusCategory = Done AND resolution not in (Duplicate, Auto-Closed, Canceled, Declined, ""Fixed by another change"", ""Cannot Reproduce"", ""Need More Info"", ""Not a Bug"", ""No Response from Customer"", ""Working As Designed"", ""Won't Do"") AND fixVersion is not EMPTY AND ""Won't Release"" is EMPTY AND fixVersion != ""no release needed"" AND (createdDate &gt;= startOfYear() OR resolved &gt;= startOfYear()) ORDER BY project ASC"
17215,Alpha - New Kanban Board,shavryliuk,"project = Analytics AND Team = ""Analytics - Alpha"" OR category in (Product, Development) AND Team = ""Analytics - Alpha"" ORDER BY project ASC, Rank ASC"
17077,Octagon - In progress,vhimpel,"project = AN AND issuetype = Epic AND status = ""In Progress"" AND Team = ""Analytics - Octagon"" ORDER BY updated DESC"
16224,Filter for Mobile Kanban ,khillman,"project = Mobile AND type in (Story, ""Technical Improvement"", Bug, Task, Spike, Epic, Security) OR category = Product AND Team in (""Team Tasty Treats/Team Meseeks"") AND type not in subTaskIssueTypes() ORDER BY Rank ASC"
16803,Unassigned In Progress Work,svrona,"category = product AND type in (Story, ""Technical Improvement"", Bug, Security) AND statusCategory = ""In Progress"" AND assignee is EMPTY ORDER BY key ASC, updated DESC, cf[11212] ASC, assignee ASC"
16343,"alpha: Q1, Q2 ",zhanna.mironchuk,"issue in LinkedIssuesByJQL(""labels in (RoadmapQ1, RoadmapQ2) AND project = AN"") AND Team = ""Analytics - Alpha"""
16425,Chat In Progress Filter,svrona,"category = Product AND team = ""Megan Fox"" AND status = ""In Progress"" AND issuetype != Epic ORDER BY status ASC"
16450,Filter for MetaDone Kanban,cwhite,"Team = MetaDone AND project != ""Engineer Experience"" ORDER BY Rank ASC"
16451,Filter for Blackbird Kanban,cwhite,"Team = Blackbird AND project != ""Engineer Experience"" ORDER BY Rank ASC"
15239,Filter for Chat Channel Kanban,jcostella,"category = product AND project = DCH AND (Team = ""Megan Fox"" OR issue in parent(""team = \""Megan Fox\"" "") ) AND issuetype in (standardIssueTypes(), subTaskIssueTypes()) ORDER BY issuetype DESC, cf[11212] DESC, key ASC, updated DESC, Rank ASC"
16311,List with Issue Links,kazizi,"project = BILL AND type in (Story, ""Technical Improvement"", Bug, Security) OR category = Product AND Team in (WhatMeWorry) AND type not in subTaskIssueTypes() AND sprint is EMPTY ORDER BY status DESC, Rank ASC"
16426,Chat To Do Filter,svrona,"category = Product AND team = ""Megan Fox"" AND statusCategory = ""To Do"" AND issuetype != Epic ORDER BY Rank"
16434,next release,zhanna.mironchuk,"project = AN AND Team = ""Analytics - VoiceOverflow"" AND Component = ""Voice Analytics"" AND status not in (New, ""Parking Lot"", ""To Do"", Defined, ""In Progress"", ""In Review"", ""Tech Research"", Blocked, ""Feature Testing"", ""Ready for Feature Testing"", ""Feature Testing"") AND resolution not in (""Won't Do"", ""Cannot Reproduce"")"
16452,Filter for Hammer Kanban,cwhite,"Team = Hammer AND project != ""Engineer Experience"" ORDER BY Rank ASC"
16321,Chillers - Kanban Board,zhanna.mironchuk,"project = Analytics AND Team = ""Analytics - Chillers"" OR category = Product AND Team = ""Analytics - Chillers"" ORDER BY Rank ASC"
16918,Filter for Rules Engine - Kanban Board,mariia.lobachova,"project = ""Rules Engine"" AND Team = ""Rules Engine - Squirrels"" OR category = Product AND Team = ""Rules Engine - Squirrels"" ORDER BY Rank ASC"
16427,Chat Waiting for Acceptance Filter,svrona,"category = Product AND team = ""Megan Fox"" AND status = ""Waiting for Acceptance"" ORDER BY status ASC"
16505,Monthly Stories in Prod,bkelly,"(project = Voice OR Team in (""Voice - Ca$h Money"", ""Smack My Voice Up"")) AND resolutiondate &gt; 2019-2-1 AND resolutiondate &lt; 2019-3-1 AND project != ""Release Management"" AND issuetype in (Story, bug, ""Technical Improvement"", Security) AND resolution not in (""Won't Do"", Auto-Closed, ""Cannot Reproduce"") ORDER BY issuetype DESC"
16326,Analytics Deployment Board (All Team) ,zhanna.mironchuk,"project = Analytics AND Team in (""Analytics - Alpha"", ""Analytics - Chillers"", ""Analytics - Analytics Data"", ""Analytics - VoiceOverflow"", ""Analytics - Octagon"") ORDER BY Rank ASC"
16322,VoiceOverflow - Kanban Board,zhanna.mironchuk,"project = Analytics AND Team = ""Analytics - VoiceOverflow"" OR category = Product AND Team = ""Analytics - VoiceOverflow"" ORDER BY Rank ASC"
16482,Team Field Empty,zhanna.mironchuk,"category = Product AND type in (Story, Bug, ""Technical Improvement"") AND team is EMPTY AND statusCategory = Done AND resolution not in (Duplicate, Auto-Closed, Canceled, Declined, ""Fixed by another change"", ""Cannot Reproduce"", ""Need More Info"", ""Not a Bug"", ""No Response from Customer"", ""Working As Designed"", ""Won't Do"") AND fixVersion is not EMPTY AND ""Won't Release"" is EMPTY AND (createdDate &gt;= startOfYear() OR resolved &gt;= startOfYear()) ORDER BY project ASC"
17002,Filter for Surveys - Kanban 2,mariia.lobachova,"project = Surveys AND Team = ""Surveys - Tundra"" OR category = Product AND Team = ""Surveys - Tundra"" ORDER BY Rank ASC"
16317,Alpha - Kanban Board,zhanna.mironchuk,"project = Analytics AND Team = ""Analytics - Alpha"" OR category in (Product, Development) AND Team = ""Analytics - Alpha"" ORDER BY project ASC, Rank ASC"
16308,Los Pandas - Kanban w/Tasks,agomez,"project in (""Platform Billing"", ""Billing Service"") AND Team = ""Los Pandas"" AND type in (Story, ""Technical Improvement"", Bug, Spike, Epic, Security, Task, Sub-task) OR category = Product AND team in (""Los Pandas"") AND type in (Story, ""Technical Improvement"", Bug, Spike, Epic, Security, Task, Sub-task) ORDER BY Rank ASC"
16324,Octagon - Kanban Board,zhanna.mironchuk,"project = Analytics AND Team = ""Analytics - Octagon"" OR category = Product AND Team = ""Analytics - Octagon"" ORDER BY Rank ASC"
16252,Seb - Crit/Maj Security Issues with NO TEAM,stoma,"type = Security AND project not in (DevOps, ""Data Warehouse"", ""Nextiva Infrastructure"", Security, ""ORACLE BRM"") and Team is EMPTY and status = ""Ready for Grooming"" and priority != Minor ORDER BY project asc"
16309,Los Pandas Kanban W/Sub Tasks,agomez,"project in (""Platform Billing"", ""Billing Service"") AND Team = ""Los Pandas"" AND type in (Story, ""Technical Improvement"", Bug, Spike, Epic, Security, Task, Sub-task) OR category = Product AND team in (""Los Pandas"") AND type in (Story, ""Technical Improvement"", Bug, Spike, Epic, Security, Task, Sub-task) ORDER BY Rank ASC"
16755,NoEpic Next UI ,viktor.kutvin,"category = Product AND issuetype in (Story, ""Technical Improvement"", Bug, Security) AND statusCategory = ""In Progress"" AND ""Epic Link"" is EMPTY and (Team = ""Next UI - Trident"") ORDER BY key ASC"
16806,Epicless In Progress,tsussman,"Team in (""Voice - Ca$h Money"", ""Smack My Voice Up"", WhatMeWorry, Hara, ""Team Tasty Treats/Team Meseeks"", Guacamolepers, Mariachis, ""Los Pandas"", ""Golden Rooster"") AND type != Employee AND statusCategory = ""In Progress"" AND ""Epic Link"" is EMPTY AND (labels is EMPTY  OR labels not in (No_Epic)) AND issuetype in (Story, ""Technical Improvement"") ORDER BY cf[11212] ASC"
16439,Filter for Hara Kanban Board,cwhite,Team = Hara ORDER BY Rank ASC
16461,Filter for The Robots,tsussman,Team = ES-TheRobots ORDER BY Rank ASC
16710,CRM Not Roadmap2019,hanna.podoliak,"category = product AND project in (CRMS, Activities) and team in (Hammer, ""Interactions - Javelin"") AND type in (Story, ""Technical Improvement"", Bug, Security) AND statusCategory = ""In Progress"" AND NOT issue in LinkedIssuesByJQL(""category = Product AND type = Epic AND labels = Roadmap2019"")"
17216,Analytics New Development Board (All Teams),shavryliuk,"project = Analytics AND Team in (""Analytics - Alpha"", ""Analytics - Analytics Data"", ""Analytics - VoiceOverflow"", ""Analytics - Octagon"") OR category = Product AND Team in (""Analytics - Alpha"", ""Analytics - Analytics Data"", ""Analytics - VoiceOverflow"", ""Analytics - Octagon"") ORDER BY Rank ASC"
16756,NoEpic JB,viktor.kutvin,"category = Product AND issuetype in (Story, ""Technical Improvement"", Bug, Security) AND statusCategory = ""In Progress"" AND ""Epic Link"" is EMPTY AND Team = JB ORDER BY key ASC"
17272,Denis Iteration 1,vhimpel,"project = AN AND labels = Iteration_1 AND Team = ""Analytics - Octagon"" ORDER BY updated DESC"
17273,Octagon - Iteration 1,vhimpel,"project = AN AND resolution = Unresolved AND labels = Iteration_1 AND Team = ""Analytics - Octagon"" ORDER BY updated DESC"
17118,Octagon - New Kanban Board,shavryliuk,"project = Analytics AND Team = ""Analytics - Octagon"" OR category in (Development, Product) AND Team = ""Analytics - Octagon"" ORDER BY Rank ASC"
17056,Filter for Marketing - Kanban,mariia.lobachova,"project = MKTG AND Team in (""Marketing - Mailto"") OR category in (Product, Development) AND Team in (""Marketing - Mailto"") AND type not in subTaskIssueTypes() ORDER BY Rank ASC"
17044,VoiceOverflow (temporarily),shavryliuk,"project = Analytics AND Team = ""Analytics - VoiceOverflow"" AND Team = ""Analytics - Chillers"" OR category = Product AND Team = ""Analytics - VoiceOverflow"" ORDER BY Rank ASC"
17000,Voice Kanban Board,tschneider,"(team in (""Voice - Ca$h Money"", ""Smack My Voice Up"") or (project = Voice)) AND issuetype in (Story, Security, Task, ""Technical Improvement"", Bug) ORDER BY Rank ASC"
17110,Updated Board Filter for Alpha Team,zhanna.mironchuk,"Team = ""Analytics - Alpha"" AND project not in (""Engineer Experience"", ""PTO Requests"", ""Release Management"") ORDER BY project DESC, Rank ASC"
16949,Kyiv PTO Today,jcharles,"project = pto AND location = kyiv AND issuetype in (pto, WFH) AND ""Planned Start"" &lt;= startOfDay() AND ""Planned End"" &gt;= startOfDay() AND team != ""N/A"" and status in (""Leave Approved"", Submitted) ORDER BY cf[11209] desc, ""Planned Start"""
16959,Kyiv PTO Temp,jcharles,"project = pto AND location = kyiv AND issuetype in (pto, WFH) AND ""Planned Start"" &lt;= startOfDay() AND ""Planned End"" &gt;= startOfDay() AND team != ""N/A"" and status in (""Leave Approved"", Submitted) ORDER BY cf[11209] desc, ""Planned Start"""
16970,Analytics - full team,jcharles,"project = ex AND issuetype = employee AND status = active AND Products in (Analytics) ORDER BY ""Is Manager"", department desc, team, skill"
16965,"Bugs - Voice, Fax",mwelter,"project in (NV, FAX) AND issuetype = Bug AND resolution = Unresolved AND Team is EMPTY ORDER BY priority DESC"
15665,Filter for Smack My Voice Up - Kanban Board,tsussman,"Team = ""Smack My Voice Up"" AND type in (Story, ""Technical Improvement"", Bug, Spike, Epic, Security, Task) ORDER BY Rank ASC"
17045,Voice + Chillers,zhanna.mironchuk,"project = Analytics AND Team = ""Analytics - VoiceOverflow"" OR Team = ""Analytics - Chillers"" OR category = Product AND Team = ""Analytics - VoiceOverflow"" ORDER BY Rank ASC"
17529,New Ca$h Money,jcostella,"project = NV AND team = ""Voice - Ca$h Money"" AND type in (Story, ""Technical Improvement"", Bug, Task, Spike, Epic, Security, Sub-task) OR category = Product AND team in (""Voice - Ca$h Money"") AND type in (Story, ""Technical Improvement"", Bug, Task, Spike, Epic, Security, Sub-task) ORDER BY Rank ASC"
16964,"Security Tickets - Voice, Fax",mwelter,"project in (NV, FAX) AND issuetype = Security AND resolution = Unresolved AND Team is EMPTY AND (labels != ""Axacore"" OR labels IS EMPTY) ORDER BY priority DESC"
17148,Blocked,hanna.podoliak,"Team in (Hammer, Blackbird, MetaDone, ""Interactions - Javelin"") AND status in (Blocked, ""Tech Research"")"
15421,Filter for Platform Admin - Kanban,khillman,"project = ""Platform Admin"" AND team = ""Platform Admin - Platypus Project"" OR category = Product AND team = ""Platform Admin - Platypus Project"" ORDER BY Rank ASC
"
16221,Filter for Los Pandas - Kanban,tsussman,"project in (""Platform Billing"", ""Billing Service"") AND Team = ""Los Pandas""  AND type in (Story, ""Technical Improvement"", Bug, Spike, Epic, Security) OR category = Product AND team in (""Los Pandas"") AND type in (Story, ""Technical Improvement"", Bug, Spike, Epic, Security) ORDER BY Rank ASC"
15653,Filter for SalesQuote V2 - Golden Rooster Board,tsussman,"project in (SQ, SQV) AND Team in (""Golden Rooster"") AND issuetype in (Bug, Story, ""Technical Improvement"", Security, Epic) OR category = Product AND Team in (""Golden Rooster"") AND issuetype in (Bug, Story, ""Technical Improvement"", Security, Epic) ORDER BY Rank ASC"
13337,Intelliswift Main Board,tsussman,"category = Product AND Team in (""Intelliswift Team"", ""Intelliswift - Billing"", ""Intelliswift - Dialers"", ""Intelliswift - Tooling"") AND Type in (Story, ""Technical Story"", Bug, Task, Epic, Spike) ORDER BY Rank ASC"
16325,Analytics Development Board (All Team),zhanna.mironchuk,"project = Analytics AND Team in (""Analytics - Alpha"", ""Analytics - Analytics Data"", ""Analytics - VoiceOverflow"", ""Analytics - Octagon"") OR category = Product AND Team in (""Analytics - Alpha"", ""Analytics - Analytics Data"", ""Analytics - VoiceOverflow"", ""Analytics - Octagon"") ORDER BY Rank ASC"
17109,wipbystatus,bhenry,"statusCategory = ""In Progress"" AND issuetype in (Story, Security, ""Technical Improvement"", Bug) AND team in (""Voice - Ca$h Money"", ""Smack My Voice Up"", ""Analytics - Alpha"", ""Analytics - Analytics Data"", ""Analytics - Octagon"", ""Analytics - VoiceOverflow"", ""Platform Admin - Platypus Project"", MetaDone, Blackbird, ""Interactions - Javelin"", Hammer, Mariachis, ""Marketing - Mailto"", ""Megan Fox"", ""Data Migration - Monarchs"", ""Surveys - Tundra"", Zen, ""Rules Engine - Squirrels"", ""Team Tasty Treats/Team Meseeks"", ""Los Pandas"", ""Next UI - Trident"", WhatMeWorry, ""Gummy Bears"", Guacamolepers, hara, ""Golden Rooster"", JB) "
17116,CCH no Discription,viktor.kutvin,"category = product AND type = story AND statusCategory in (""In Progress"", Done) AND description is EMPTY AND (resolution is EMPTY OR resolution = Done) AND Team = ""Megan Fox"" ORDER BY  project ASC"
17117,DCH no description,viktor.kutvin,"category = product AND type = story AND statusCategory in (""In Progress"", Done) AND description is EMPTY AND (resolution is EMPTY OR resolution = Done) AND Team = Zen ORDER BY status ASC, project ASC"
17119,VoiceOverflow - New Kanban Board,shavryliuk,"project = Analytics AND Team = ""Analytics - VoiceOverflow"" OR category in (Development, Product) AND Team = ""Analytics - VoiceOverflow"" ORDER BY Rank ASC"
17509,Javelin&amp;Hammer_p,hanna.podoliak,"project in (CRMS, Activities, ""Data Migration"", ""Builder Tools"", Calendar, ""Integration - Platform"", ""Platform Admin"") AND Team in (""Interactions - Javelin"", Hammer) OR category in (Development, Product) AND Team in (Hammer, ""Interactions - Javelin"") ORDER BY key DESC, Rank ASC"
16323,Analytics Data - Kanban Board,zhanna.mironchuk,"project = Analytics AND Team = ""Analytics - Analytics Data"" OR category in (Product, Development) AND Team = ""Analytics - Analytics Data"" ORDER BY Rank ASC"
17221,-5 IT org team cleanup,cwhite,"project = EX AND Org = IT AND Team != ""N/A"" AND Team is not EMPTY AND Team not in (""Architecture - Scottsdale"", ""Architecture - Kyiv"", ""Architecture - Guadalajara"", TARDIS) AND (type = Employee AND status != Inactive OR type = Epic AND labels = Team AND issue in epicsWhereIssueIn(""(type = Employee AND status != Inactive AND 'Epic Link' is not EMPTY )"")) ORDER BY cf[11212] ASC, issuetype DESC, status DESC, cf[10401] DESC"
17222,-6 Engineering org team cleanup,cwhite,"project = EX AND Org = Engineering AND Team != ""N/A"" AND Team is not EMPTY AND Team not in (""Architecture - Scottsdale"", ""Architecture - Kyiv"", ""Architecture - Guadalajara"", TARDIS) AND (type = Employee AND status not in (Inactive, Pending) AND Name not in inactiveUsers() OR type = Epic AND labels = Team AND issue in epicsWhereIssueIn(""(type = Employee AND status not in (Inactive, Pending) AND 'Epic Link' is not EMPTY )"")) ORDER BY cf[11212] ASC, issuetype DESC, status DESC, cf[10401] DESC"
17372,Octagon - New Kanban Board + VPodnebesnaya,shavryliuk,"project = Analytics AND Team = ""Analytics - Octagon"" OR category in (Development, Product) AND Team = ""Analytics - Octagon"" AND Team = ""Analytics - Analytics Data"" OR assignee in (vpodnebesnaya, skateryna, ovyazovoy, pmarchenko, mboudnik, dpechenev) ORDER BY Rank ASC"
17220,-2 Missing/potentially invalid team cleanup,cwhite,"project = EX AND type = Employee AND status = Active AND Name not in inactiveUsers() AND (Team is EMPTY OR Team is not EMPTY AND Team != ""N/A"" AND ""Epic Link"" is EMPTY AND ""Internal Job Title"" not in (""Agile Coach"", ""Manager - QA"", ""Manager - Engineering"", ""Technical Business Analyst"", ""QA Coach"", ""QA Automation"", ""Scrum Master"", ""Product Manager"")) ORDER BY cf[12801] DESC"
15656,Filter for Partner Portal - Mariachis,tsussman,"project in (RC, PP, ""Flow Builder"") AND Team in (Mariachis) AND issuetype in (Bug, Story, ""Technical Improvement"", Security, Spike) OR category = Product AND Team in (Mariachis) AND issuetype in (Bug, Story, ""Technical Improvement"", Security, Spike) ORDER BY Rank ASC"
17133,Non Roadmap work in progress - Ievgeni K + Hanna,zhanna.mironchuk,"issuetype in (Story, ""Technical Improvement"") AND statusCategory = ""In Progress"" AND issueFunction in issuesInEpics(""labels != Roadmap2019 OR labels is EMPTY"") AND Team in (Hammer, Blackbird, ""Marketing - Mailto"", ""Interactions - Javelin"")"
17134,Non roadmap,hanna.podoliak,"issuetype in (Story, ""Technical Improvement"") AND statusCategory = ""In Progress"" AND issueFunction in issuesInEpics(""labels != Roadmap2019 OR labels is EMPTY"") AND Team in (Hammer, Blackbird, ""Interactions - Javelin"")"
17130,Non roadmap work in progress - Vitaliy,mvorobjov,"issuetype in (Story, ""Technical Improvement"") AND statusCategory = ""In Progress"" AND issueFunction in issuesInEpics(""labels != Roadmap2019 OR labels is EMPTY"") AND Team in (""Surveys - Tundra"", ""Rules Engine - Squirrels"", MetaDone)"
17129,Non roadmap work in progress - Ievgeniy,mvorobjov,"issuetype in (Story, ""Technical Improvement"") AND statusCategory = ""In Progress"" AND issueFunction in issuesInEpics(""labels != Roadmap2019 OR labels is EMPTY"") AND Team in (Hammer, Blackbird, ""Marketing - Mailto"", ""Interactions - Javelin"")"
17131,Non roadmap work in progress - Pavlo,mvorobjov,"issuetype in (Story, ""Technical Improvement"") AND statusCategory = ""In Progress"" AND issueFunction in issuesInEpics(""labels != Roadmap2019 OR labels is EMPTY"") AND Team in (""Surveys - Tundra"", ""Rules Engine - Squirrels"", MetaDone)"
17132,Non roadmap work in progress - Anna,mvorobjov,"issuetype in (Story, ""Technical Improvement"") AND statusCategory = ""In Progress"" AND issueFunction in issuesInEpics(""labels != Roadmap2019 OR labels is EMPTY"") AND Team in (""Digital SMS - Team 1"", ""Megan Fox"", Zen)"
17510,Javelin&amp;Hammer_1,hanna.podoliak,"Team in (""Interactions - Javelin"", Hammer) OR category in (Development, Product) AND Team in (Hammer, ""Interactions - Javelin"") ORDER BY key DESC, Rank ASC"
17349,Metadone Team_New Kanban Board,shavryliuk,"project = CRMS AND Team = MetaDone OR category in (Product) AND Team = MetaDone OR assignee in (sdiadechko, akiriukha, ypogorelova, alla.nasonova, rrudnyk, vapkarian, yevhen.pannochka) ORDER BY Rank ASC"
17149,3 team,hanna.podoliak,"issuetype in (Story, ""Technical Improvement"")   and Team = Blackbird AND Team =MetaDone  AND status in (""In Progress"", ""Code Merged"",""Code Review"", ""In Testing"", ""Integration Testing"", ""Waiting for Acceptance"")"
17138,Filter for Golden Roosters,oloeza,"category = Product AND project not in (""SalesQuote V2 (Archived)"",""Billing Service (Archived)"") AND Team in (""Golden Rooster"") ORDER BY Rank ASC"
17155,Security Issues For GDL Filter,agomez,"category = Product AND (Team in (""Golden Rooster"", Mariachis, Guacamolepers, ""Los Pandas"", ""Gummy Bears"") OR project in (""Sales Quote webapp"", ACE, ""Partner Portal"", ""Reseller Channel"", Trunking, ""Connect"", Batch, Fax, ""Platform Billing"", Drive, Notifications, Calendar, ""Integration - Platform"", Salesforce) AND (assignee is EMPTY OR assignee in (egarcia, jlopez, lsencion, agomez, oloeza))) AND issuetype = Security ORDER BY priority DESC, project DESC"
17147,Bugs for GDL filter,oloeza,"category = Product AND (Team in (""Golden Rooster"", Mariachis, Guacamolepers, ""Los Pandas"", ""Gummy Bears"") OR project in (""Sales Quote webapp"", ACE, ""Partner Portal"", ""Reseller Channel"", Trunking, ""Connect"", Batch, Fax, ""Platform Billing"", Drive, Notifications, Calendar,""Integration - Platform"",Salesforce) AND (assignee is EMPTY OR assignee in (egarcia, jlopez, lsencion, agomez, oloeza))) AND issuetype = Bug ORDER BY ""Found in Environment"" DESC, project DESC"
17140,Filter for MetaDone group Kanban ,hanna.podoliak,"project = CRMS AND Team = MetaDone OR category in (Product) AND Team = MetaDone OR assignee in (akiriukha, ypogorelova, alla.nasonova, rrudnyk,  vapkarian, yevhen.pannochka) ORDER BY Rank ASC"
17178,Filter for Guacamolepers,oloeza,"category = Product AND project not in (""SalesQuote V2 (Archived)"",""Billing Service (Archived)"") AND team in (Guacamolepers) ORDER BY Rank ASC"
13008,WhatMeWorry - Team Board,jcostella,"project in (AM, IAM, RM, DevOps) AND Team = WhatMeWorry ORDER BY Rank ASC"
17575,LD - SaaS Team Filter,jcostella,project = LD AND Team = SaaS ORDER BY Rank ASC
17576,LD - Channel Sales Team Filter,jcostella,"project = LD AND Team = ""Channel Sales"" ORDER BY Rank ASC"
17577,LD - OPS Team Filter,jcostella,project = LD AND Team = OPS ORDER BY Rank ASC
17396,Ale´s view,amayorga,"project in (RC, PP, ""Flow Builder"") AND Team in (Mariachis) AND issuetype in (Bug, Story, Task, Sub-task, ""Technical Improvement"", Security, Spike) OR category = Product AND Team in (Mariachis) AND issuetype in (Bug, Story, Task, Sub-task, ""Technical Improvement"", Security, Spike) ORDER BY Rank ASC"
17541,Smack My Voice Up Kanban Board,tschneider,"team in (""Smack My Voice Up"") AND type in (Story, ""Technical Improvement"", Bug, Task, Spike, Epic, Security, Sub-task) ORDER BY Rank ASC"
17531,Ca$h Money - Scrum Board,tschneider,"team = ""voice - ca$h money"" AND type in (Story, ""Technical Improvement"", Bug, Task, Spike, Epic, Security, Sub-task) ORDER BY Rank ASC"
17397,Ale´s 2nd view,amayorga,"project in (RC, PP, ""Flow Builder"") AND Team in (Mariachis) AND issuetype in (Bug, Story, Task, Sub-task, Security, Spike, ""Technical Improvement"") OR category = Product AND Team in (Mariachis) AND issuetype in (Bug, Story, Task, Sub-task, Security, Spike, ""Technical Improvement"") ORDER BY Rank ASC"
17574,LD - Inside Sales Team Filter,jcostella,"project = LD AND Team = ""Inside Sales"" ORDER BY Rank ASC"
17578,LD - Product and Feature Releases Team Filter,jcostella,"project = LD AND Team = ""Product and Feature Releases"" ORDER BY Rank ASC"
17580,Ca$h Money Unmapped Statuses,tschneider,"team = ""Voice - Ca$h Money""  AND type in (""Technical Improvement"", Bug, Task, Spike, Epic, Security, Sub-task) AND status in (""Integration Testing"", ""Ready for Integration Testing"")"
17581,Smack My Voice Up Unmapped Statuses,tschneider,"team = ""smack my voice up"" AND type in (""Technical Improvement"", Bug, Task, Spike, Epic, Security, Sub-task) AND status in (""Integration Testing"", ""Ready for Integration Testing"")"
12178,Filter for Wiki - Main Board,jcostella,"project = WIKI AND type in (Story, ""Technical Improvement"", Bug, Task, Spike, Epic, Security) OR category = Product AND Team in (""Wiki - Team 1"") AND type not in subTaskIssueTypes() ORDER BY Rank ASC"
12172,Filter for IAM/SSO - Team 1 Board,jcostella,"project = IAM AND Team in (""IAM - Team PTO"") OR category = Product AND Team in (""IAM - Team PTO"") OR project = IAM AND type in subTaskIssueTypes() AND issue in issuesSubtasks(""Team = 'IAM - Team PTO'"") ORDER BY Rank ASC"
12168,Filter for Dashboard - Main Board,jcostella,"project = DASH AND type in (Story, ""Technical Improvement"", Bug, Task, Spike, Security) OR category = Product AND type in (Story, ""Technical Improvement"", Bug, Task, Spike, Security) AND Team in (""Dashboard Builder - Octagon"") AND type not in subTaskIssueTypes() OR project = DASH AND type = Epic AND status not in (Done, ""Parking Lot"") ORDER BY Rank ASC"
12152,Filter for Digital Chat - Queen Chatifah Board,jcostella,"project = DC AND Team in (""Queen Chatifah"") OR category = Product AND Team in (""Queen Chatifah"") OR project = DC AND type in subTaskIssueTypes() AND issue in issuesSubtasks(""Team = 'Queen Chatifah'"") ORDER BY Rank ASC"
12300,Filter for Platform Admin - Team Board,jcostella,"project = PC AND Team in (""Platf &amp; CRM Admin Team"") OR category = Product AND Team in (""Platf &amp; CRM Admin Team"") OR project = PC AND type in subTaskIssueTypes() AND issue in issuesSubtasks(""Team = 'Platf &amp; CRM Admin Team'"") ORDER BY Rank ASC"
12139,Filter for Notifications - Main Board,jcostella,"project = NOTIF AND type in (Story, ""Technical Improvement"", Bug, Task, Spike, Epic, Security) OR category = Product AND Team in (""Notification Service - Team 1"") AND type not in subTaskIssueTypes() ORDER BY Rank ASC"
12371,Filter for Mobile Main Board,jcostella,"project = Mobile AND type in (Story, ""Technical Improvement"", Bug, Task, Spike, Epic, Security) OR category = Product AND Team in (""Team Tasty Treats/Team Meseeks"") AND type not in subTaskIssueTypes() ORDER BY Rank ASC"
12131,Filter for Account Services - Main Board,jcostella,"project = ASB AND type in (Story, ""Technical Improvement"", Bug, Task, Spike, Epic, Security) OR category = Product AND Team in (""Account Services - ITeam4j"", ""Account Services - Verde"") AND type not in subtaskissuetypes() ORDER BY Rank ASC"
12802,Filter for Nextiva Voice - Big Tymers Board,jcostella,"project = NV AND Team in (""Big Tymers"") OR category = Product AND Team in (""Big Tymers"") OR project = NV AND type in subTaskIssueTypes() AND issue in issuesSubtasks(""Team = 'Big Tymers'"") ORDER BY Rank ASC"
12203,Filter for Digital Marketing - Main Board,jcostella,"project = DMC AND type in (Story, Bug, Task, Spike, Epic, Security) OR Team in (""Survey &amp; Email - Team 1"", ""Survey &amp; Email - Team 2"") ORDER BY Rank ASC"
12209,Filter for CRM - Main Board,jcostella,"project = CRMSVC AND type in (Story, ""Technical Improvement"", Bug, Task, Spike, Epic, Security) OR category = Product AND Team in (""CRM - Agent - Heisenberg"", ""CRM - Agent - Phoenix"", ""CRM - Agent - Viperfish"") AND type not in subtaskissuetypes() ORDER BY Rank ASC"
13007,BILL - Main Board,jcostella,"project = BILL AND type in (Story, ""Technical Improvement"", Bug, Task, Spike, Epic, Security) OR category = Product AND Team in (WhatMeWorry) AND type not in subTaskIssueTypes() ORDER BY Rank ASC"
17011,Analytics tickets,jcostella,"project = analytics AND type in (Story, Bug, ""Technical Improvement"") AND team in (""Analytics - Alpha"",
""Analytics - Analytics Data"",
""Analytics - Chillers"",
""Analytics - Octagon"",
""Analytics - VoiceOverflow"")"
15293,All Tickets by Team,jcostella,"category = Product AND Team is not EMPTY AND type in (Story, Bug, ""Technical Improvement"") AND statusCategory = Done AND team not in (""Account Services - ITeam4j"", ""Account Services - Verde"", Apollo, ""Big Tymers"", ""Cust Setup Tools - Team 1"", ""DevOps Team"", ""Intelliswift - Dialers"", ""Intelliswift Team"", ""Intelliswift - Tooling"", ""N/A"", ""Partner Portal - Team 1"", ""QA AZ"", ""QA Core Team"", ""QA Kyiv"", ""Rules Engine - Mars"", ""Security Team"", Winston, ""CRM - Data Migration"")"
14919,Closed Issues with NO TEAM,jcostella,"category = Product AND statusCategory = Done AND type in (Story, ""Technical Improvement"", Bug) AND Team is EMPTY AND resolutiondate &gt;= 2018-01-01 AND resolution not in (Canceled, ""Won't Do"", Duplicate, Declined)"
17280,Ca$h Money - Scrum Board,jcostella,"project = NV AND team = ""Voice - Ca$h Money"" AND type in (Story, ""Technical Improvement"", Bug, Task, Spike, Epic, Security) OR category = Product AND team in (""Voice - Ca$h Money"") AND type in (Story, ""Technical Improvement"", Bug, Task, Spike, Epic, Security) ORDER BY Rank ASC"
13621,Calendar - Main Board Filter,jcostella,"project = CAL AND type in (Story, ""Technical Improvement"", Bug, Task, Spike, Security, subTaskIssueTypes()) OR category = Product AND type in (Story, ""Technical Improvement"", Bug, Task, Spike, Security, subTaskIssueTypes()) AND Team in (""Los Curados"") OR project = CAL AND type = Epic AND status not in (Done, ""Parking Lot"") ORDER BY Rank ASC"
17051,Current Architecture Employees,jcostella,"project = EX AND type = Employee AND (Team in (""Architecture - Scottsdale"", ""Architecture - Kyiv"") OR Department in (Architecture)) AND statusCategory = ""In Progress"" AND status != ""On Hold"" "
16924,CRs with No Team,jcostella,"project = RM AND Team is EMPTY AND type = ""Change Request"" AND createdDate &gt;= startOfYear() ORDER BY created DESC"
14115,Filter for Ca$h Money Kanban,jcostella,"project = NV AND Team in (""Ca$h Money"") OR category = Product AND Team in (""Ca$h Money"") OR project = NV AND type in subTaskIssueTypes() AND issue in issuesSubtasks(""Team = 'Ca$h Money'"") ORDER BY Rank ASC"
12125,Filter for CRM - Agent - Heisenberg,jcostella,"project = CRMSVC AND Team in (""CRM - Agent - Heisenberg"") OR (category = Product OR project = QA) AND Team = ""CRM - Agent - Heisenberg"" OR project = CRMSVC AND type in subTaskIssueTypes() AND issue in issuesSubtasks(""Team = 'CRM - Agent - Heisenberg'"") ORDER BY Rank ASC"
12122,Filter for CRM - Agent - Phoenix,jcostella,"project = CRMSVC AND Team in (""CRM - Agent - Phoenix"") OR Team in (""CRM - Agent - Phoenix"") OR project = CRMSVC AND type = Sub-task AND issue in issuesSubtasks(""Team = 'CRM - Agent - Phoenix'"") ORDER BY Rank ASC"
17605,Metadone Kanban Board,hanna.podoliak,"project = CRMS AND Team = MetaDone OR category in (Product) AND Team = MetaDone OR assignee in (akiriukha, ypogorelova) ORDER BY Rank ASC"
17606,Guac - New Filter,agomez,"project in (""Sales Quote webapp"",ACE) AND Team = ""Guacamolepers"" AND type in (Story, ""Technical Improvement"", Bug, Spike, Epic, Security, Task, Sub-task) OR category = Product AND team in (""Guacamolepers"") AND type in (Story, ""Technical Improvement"", Bug, Spike, Epic, Security, Task, Sub-task) ORDER BY Rank ASC"
16319,Filter for Los Pandas - Kanban. Full,agomez,"Team = ""Los Pandas"" AND type in (Story, ""Technical Improvement"", Bug, Spike, Epic, Security, Task, Sub-task, ""Sprint Bug"") OR category = Product AND team in (""Los Pandas"") AND type in (Story, ""Technical Improvement"", Bug, Spike, Epic, Security, Task, Sub-task, ""Sprint Bug"") ORDER BY Rank ASC"
17549,Next UI - Dragon - Kanban Board,tschneider,"project = NUI AND Team = ""Next UI - Dragon"" AND type not in (epic, Sub-task) OR category = product AND team = ""Next UI - Dragon"" AND type not in (epic, Sub-task, Initiative) ORDER BY Rank"
16931,Filter for Gummy Bears Kanban,agomez,"project = ""Integration - Platform"" AND Team = ""Gummy Bears"" AND type in (Story, ""Technical Improvement"", Bug, Spike, Epic, Security, Task, Sub-task, ""Sprint Bug"") OR category = Product AND team in (""Gummy Bears"") AND type in (Story, ""Technical Improvement"", Bug, Spike, Epic, Security, Task, Sub-task, ""Sprint Bug"") ORDER BY Rank ASC"
17530,Filter for Test,mfrautnick,"project = NV AND Team = ""Smack My Voice Up"" ORDER BY Rank ASC"
17607,Golden Rooster - New,agomez,"Team in (""Golden Rooster"") AND issuetype in (Bug, Story, ""Technical Improvement"", Security, Epic) OR category = Product AND Team in (""Golden Rooster"") AND issuetype in (Bug, Story, ""Technical Improvement"", Security, Epic) ORDER BY Rank ASC"
17612,Golden Roosters Nov.27.2019,amayorga,"Team in (""Golden Rooster"") AND issuetype in (Bug, Story, ""Technical Improvement"", Security, Epic) OR category = Product AND Team in (""Golden Rooster"") AND issuetype in (Bug, Story, ""Technical Improvement"", Security, Epic) ORDER BY Rank ASC"
17508,Javelin&amp;Hammer,hanna.podoliak,"project in (CRMS, Activities, ""Data Migration"", ""Builder Tools"", Calendar, ""Integration - Platform"", ""Platform Admin"") AND Team in (Javelin, Hammer) OR category in (Development, Product) AND Team in (Hammer, Javelin) ORDER BY key DESC, Rank ASC"
13354,Filter for CRM Admin - Javelin Team Board,jcostella,"project = CRMSVC AND Team in (Javelin) OR category = Product AND Team in (Javelin) OR project = ""Builder Tools"" ORDER BY Rank ASC"
17620,Pre-Dev Priority,mwelter,"project = NV AND issuetype in (Bug, Epic, Security, Spike, Story, ""Technical Improvement"") AND cf[11212] = ""Voice - Ca$h Money"" ORDER BY Rank ASC"
